﻿<?xml version="1.0" encoding="utf-8"?>
<!DOCTYPE svg PUBLIC "-//W3C//DTD SVG 1.0//EN" "http://www.w3.org/TR/2001/REC-SVG-20010904/DTD/svg10.dtd"[
	<!ENTITY ns_flows "http://ns.adobe.com/Flows/1.0/">
	<!ENTITY ns_svg "http://www.w3.org/2000/svg">
	<!ENTITY ns_xlink "http://www.w3.org/1999/xlink">
	<!ENTITY st0 "font-size:7px;font-family:'MS-PGothic';adobe-font-script:japanese;">
	<!ENTITY st1 "font-size:6px;font-family:'ArialMT';">
	<!-- White fill  -->
	<!ENTITY st2 "fill:#FFFFFF;stroke:#000000; stroke-width:1.41;stroke-linecap:round;stroke-linejoin:round;">
	<!-- Yellow fill  -->
	<!ENTITY st3 "fill:#FFFFCC;stroke:#FFFFCC; stroke-width:0.1;stroke-linecap:round;stroke-linejoin:round;">
	<!-- Gray fill  -->
	<!ENTITY st4 "fill:#CCCCCC;stroke:#CCCCCC; stroke-width:0.1;stroke-linecap:round;stroke-linejoin:round;">
	<!-- Light-blue fill -->
	<!ENTITY st5 "fill:#CCECF4;stroke:#000000; stroke-width:1.133;stroke-linecap:round;stroke-linejoin:round;">
	<!ENTITY st6 "fill:none;stroke-linecap:butt; stroke-linejoin:round;">
	<!ENTITY st7 "fill:none;stroke:#000000;stroke-linecap:round;stroke-linejoin:round;">
	<!ENTITY st8 "enable-background:new    ;">
	<!-- Black fill -->
	<!ENTITY st9 "fill:#000000;stroke:#000000; stroke-linecap:round;stroke-linejoin:round;">
	<!-- SRS note   -->
	<!ENTITY st10 "font-size:9px;font-family:'ArialMT';">
	<!ENTITY st11 "font-size:9px;font-family:'Svg Symbol';">
	<!ENTITY st12 "font-size:6px;font-family:'Svg Symbol';">
	<!ENTITY st13 "fill:none;stroke:#ff0000;stroke-linecap:round;stroke-linejoin:round;">
	<!-- Yellow fill  -->
	<!ENTITY st14 "fill:#FFFF00;stroke:#FFFF00; stroke-width:0.1;stroke-linecap:round;stroke-linejoin:round;">
	<!ENTITY st15 "font-size:6px;font-family:'MS-PGothic';adobe-font-script:japanese;">
	<!ENTITY st16 "1.00 0.00 0.00 1.00">
	<!ENTITY st17 "0.00 -1.00 1.00 0.00">
	<!ENTITY st18 "font-size:6px;font-family:'Arial';">
	<!ENTITY st19 "font-size:9px;font-family:'Arial';">
	<!ENTITY st20 "font-size:6px;font-family:'MS-PGothic','MS PGothic';adobe-font-script:japanese;">
	<!ENTITY st21 "font-size:7px;font-family:'MS-PGothic','MS PGothic';adobe-font-script:japanese;">
	<!ATTLIST svg
		xmlns:ewd CDATA #FIXED "http://shcl.co.jp/ewd"
		xmlns:a CDATA #FIXED "http://ns.adobe.com/AdobeSVGViewerExtensions/3.0/"
		ewd:ver CDATA #IMPLIED
	>
	<!ATTLIST a
		ewd:lineID CDATA #IMPLIED
		ewd:groupID CDATA #IMPLIED
		ewd:figtype CDATA #IMPLIED
		ewd:code CDATA #IMPLIED
		ewd:figID CDATA #IMPLIED
		ewd:pinNo CDATA #IMPLIED
		ewd:comment CDATA #IMPLIED >
	<!ATTLIST g
		ewd:lineID CDATA #IMPLIED
		ewd:groupID CDATA #IMPLIED
		ewd:figtype CDATA #IMPLIED
		ewd:code CDATA #IMPLIED
		ewd:figID CDATA #IMPLIED
		ewd:pinNo CDATA #IMPLIED
		ewd:comment CDATA #IMPLIED >
	<!ATTLIST text
		ewd:textID CDATA #IMPLIED >
	<!ATTLIST title
		ewd:textID CDATA #IMPLIED >
]>
<!-- Generator: Shintec Hozumi YS   -->
<svg onload="call_execInitLoadProc_svg('system')" style="overflow:visible;  enable-background:new 0 0 6697.589 710.000" viewBox="0 0 6697.589 710.000" height="710.000" width="6697.589" xml:space="preserve" ewd:ver="2.1.2.9" xmlns="&ns_svg;" xmlns:a="http://ns.adobe.com/AdobeSVGViewerExtensions/3.0/" xmlns:ewd="http://shcl.co.jp/ewd" xmlns:xlink="&ns_xlink;">
<path style="stroke-width: 1.42 ;&st7;  " d=" M  4597.73,   392.72  L  4589.23,   392.72  " /><path style="stroke-width: 1.42 ;&st7;  " d=" M  4631.73,   392.72  L  4623.23,   392.72  " /><path style="stroke-width: 1.42 ;&st7;  " d=" M  4793.20,   146.26  L  4801.70,   146.26  " /><text style="&st18;" transform="matrix(&st17;  4953.81  246.9 )">(A/T)</text><text style="&st18;" transform="matrix(&st17;  4732.85  331.89 )">(A/T)</text><text style="&st18;" transform="matrix(&st17;  4630.86  357.38 )">(A/T)</text><text style="&st18;" transform="matrix(&st17;  4596.87  357.38 )">(A/T)</text><text style="&st18;" transform="matrix(&st17;  4562.88  357.38 )">(A/T)</text><text style="&st18;" transform="matrix(&st17;  4528.88  357.38 )">(A/T)</text><text style="&st18;" transform="matrix(&st16;  4627.06  558.99 )">P-G(A/T)</text><text style="&st18;" transform="matrix(&st16;  4678.05  558.99 )">P-G(A/T)</text><text style="&st18;" transform="matrix(&st17;  4942.48  245.0 )">P-G</text><text style="&st18;" transform="matrix(&st16;  4678.13  508.0 )">B-Y(A/T)</text><text style="&st18;" transform="matrix(&st16;  4627.14  508.0 )">B-Y(A/T)</text><text style="&st18;" transform="matrix(&st16;  4625.01  525.0 )">GR-B(A/T)</text><text style="&st18;" transform="matrix(&st16;  4676.0  525.0 )">GR-B(A/T)</text><text style="&st18;" transform="matrix(&st16;  4677.36  542.0 )">W-B(A/T)</text><text style="&st18;" transform="matrix(&st16;  4626.37  542.0 )">W-B(A/T)</text><text style="&st18;" transform="matrix(&st17;  4798.0  128.8 )">LG</text><text style="&st18;" transform="matrix(&st17;  4721.52  331.93 )">LG-R</text><text style="&st18;" transform="matrix(&st17;  4551.54  355.41 )">B-Y</text><text style="&st18;" transform="matrix(&st17;  4517.55  357.54 )">GR-B</text><text style="&st18;" transform="matrix(&st16;  4629.08  491.01 )">SB(A/T)</text><text style="&st18;" transform="matrix(&st16;  4630.63  474.01 )">Y(A/T)</text><text style="&st18;" transform="matrix(&st16;  4680.07  491.01 )">SB(A/T)</text><text style="&st18;" transform="matrix(&st16;  4681.62  474.01 )">Y(A/T)</text><text style="&st18;" transform="matrix(&st17;  4619.53  351.92 )">Y</text><text style="&st18;" transform="matrix(&st17;  4585.54  353.47 )">SB</text><text style="&st18;" transform="matrix(&st16;  4679.31  253.05 )">ECM</text><text style="&st18;" transform="matrix(&st16;  4688.25  584.49 )">W</text><text style="&st18;" transform="matrix(&st16;  4686.9  601.49 )">GR</text><text style="&st18;" transform="matrix(&st16;  4637.26  584.49 )">W</text><text style="&st18;" transform="matrix(&st16;  4635.9  601.49 )">GR</text><path style="stroke-width: 1.42 ;&st7;  " d=" M  4954.67,   559.16  L  4949.70,   554.19  " /><path style="stroke-width: 1.42 ;&st7;  " d=" M  4937.67,   566.22  L  4942.65,   571.19  " /><path style="stroke-width: 1.42 ;&st7;  " d=" M  4949.70,   571.19  L  4954.67,   566.22  " /><path style="stroke-width: 1.42 ;&st7;  " d=" M  4942.65,   554.19  L  4937.67,   559.16  " /><path style="stroke-width: 1.42 ;&st7;  " d=" M  4810.20,   307.73  L  4801.70,   307.73  " /><path style="stroke-width: 1.42 ;&st7;  " d=" M  4810.20,   346.70  L  4805.22,   341.73  " /><path style="stroke-width: 1.42 ;&st7;  " d=" M  4793.20,   353.76  L  4798.17,   358.73  " /><path style="stroke-width: 1.42 ;&st7;  " d=" M  4805.22,   358.73  L  4810.20,   353.76  " /><path style="stroke-width: 1.42 ;&st7;  " d=" M  4798.17,   341.73  L  4793.20,   346.70  " /><text style="&st18;" transform="matrix(&st17;  4798.0  326.54 )">V</text><text style="&st18;" transform="matrix(&st17;  4809.33  196.34 )">(M/T)</text><text style="&st18;" transform="matrix(&st17;  4809.33  272.82 )">(M/T)</text><text style="&st18;" transform="matrix(&st17;  4798.0  267.05 )">V</text><text style="&st18;" transform="matrix(&st17;  4798.0  192.54 )">LG</text><text style="&st18;" transform="matrix(&st16;  4865.4  193.56 )">LG</text><text style="&st18;" transform="matrix(&st16;  4862.03  204.89 )">(A/T)</text><text style="&st18;" transform="matrix(&st16;  4679.3  246.22 )">A24(A),C50(B)</text><text style="&st18;" transform="matrix(&st16;  4688.91  635.48 )">V</text><text style="&st18;" transform="matrix(&st16;  4689.03  618.48 )">Y</text><text style="&st18;" transform="matrix(&st16;  4637.92  635.48 )">V</text><text style="&st18;" transform="matrix(&st16;  4638.04  618.48 )">Y</text><text style="&st18;" transform="matrix(&st17;  4747.01  326.54 )">V</text><text style="&st18;" transform="matrix(&st17;  4987.8  246.9 )">(A/T)</text><text style="&st18;" transform="matrix(&st17;  4976.47  241.55 )">V</text><g ewd:figtype="conn" ewd:figID="2" ewd:code="A24,C50"><g ewd:lineID="173"><text style="&st18;" transform="matrix(&st16;  4577.44  305.74 )">65</text><text style="&st18;" transform="matrix(&st16;  4586.93  305.74 )">A</text><path style="stroke-width: 1.42 ;&st7;   " d=" M  4593.77,   303.77  C  4593.77    301.26   4591.74    299.24   4589.23    299.24  " /><path style="stroke-width: 1.42 ;&st7;   " d=" M  4589.23,   299.24  C  4586.73    299.24   4584.70    301.26   4584.70    303.77  " /><path style="stroke-width: 1.42 ;&st7;   " d=" M  4584.70,   303.77  C  4584.70    306.27   4586.73    308.30   4589.23    308.30  " /><path style="stroke-width: 1.42 ;&st7;   " d=" M  4589.23,   308.30  C  4591.74    308.30   4593.77    306.27   4593.77    303.77  " /><text style="&st18;" transform="matrix(&st16;  4580.76  295.54 )">ODCS</text></g><g ewd:lineID="174"><text style="&st18;" transform="matrix(&st16;  4611.43  305.74 )">66</text><text style="&st18;" transform="matrix(&st16;  4620.92  305.74 )">A</text><path style="stroke-width: 1.42 ;&st7;   " d=" M  4627.76,   303.77  C  4627.76    301.26   4625.73    299.24   4623.23    299.24  " /><path style="stroke-width: 1.42 ;&st7;   " d=" M  4623.23,   299.24  C  4620.72    299.24   4618.69    301.26   4618.69    303.77  " /><path style="stroke-width: 1.42 ;&st7;   " d=" M  4618.69,   303.77  C  4618.69    306.27   4620.72    308.30   4623.23    308.30  " /><path style="stroke-width: 1.42 ;&st7;   " d=" M  4623.23,   308.30  C  4625.73    308.30   4627.76    306.27   4627.76    303.77  " /><text style="&st18;" transform="matrix(&st16;  4620.85  295.54 )">D</text></g><g ewd:lineID="175"><text style="&st18;" transform="matrix(&st16;  4713.41  305.74 )">93</text><text style="&st18;" transform="matrix(&st16;  4723.02  305.74 )">B</text><path style="stroke-width: 1.42 ;&st7;   " d=" M  4729.74,   303.77  C  4729.74    301.26   4727.71    299.24   4725.21    299.24  " /><path style="stroke-width: 1.42 ;&st7;   " d=" M  4725.21,   299.24  C  4722.71    299.24   4720.68    301.26   4720.68    303.77  " /><path style="stroke-width: 1.42 ;&st7;   " d=" M  4720.68,   303.77  C  4720.68    306.27   4722.71    308.30   4725.21    308.30  " /><path style="stroke-width: 1.42 ;&st7;   " d=" M  4725.21,   308.30  C  4727.71    308.30   4729.74    306.27   4729.74    303.77  " /><text style="&st18;" transform="matrix(&st16;  4717.75  295.54 )">NSSN</text></g><g ewd:lineID="176"><text style="&st18;" transform="matrix(&st16;  4738.91  305.74 )">68</text><path style="stroke-width: 1.42 ;&st7;   " d=" M  4755.24,   303.77  C  4755.24    301.26   4753.21    299.24   4750.71    299.24  " /><path style="stroke-width: 1.42 ;&st7;   " d=" M  4750.71,   299.24  C  4748.20    299.24   4746.17    301.26   4746.17    303.77  " /><path style="stroke-width: 1.42 ;&st7;   " d=" M  4746.17,   303.77  C  4746.17    306.27   4748.20    308.30   4750.71    308.30  " /><path style="stroke-width: 1.42 ;&st7;   " d=" M  4750.71,   308.30  C  4753.21    308.30   4755.24    306.27   4755.24    303.77  " /><text style="&st18;" transform="matrix(&st16;  4748.4  305.74 )">A</text><text style="&st18;" transform="matrix(&st16;  4748.6  295.54 )">R</text></g><g ewd:lineID="190"><text style="&st18;" transform="matrix(&st16;  4543.44  305.74 )">71</text><path style="stroke-width: 1.42 ;&st7;   " d=" M  4559.77,   303.77  C  4559.77    301.26   4557.74    299.24   4555.24    299.24  " /><path style="stroke-width: 1.42 ;&st7;   " d=" M  4555.24,   299.24  C  4552.74    299.24   4550.71    301.26   4550.71    303.77  " /><path style="stroke-width: 1.42 ;&st7;   " d=" M  4550.71,   303.77  C  4550.71    306.27   4552.74    308.30   4555.24    308.30  " /><path style="stroke-width: 1.42 ;&st7;   " d=" M  4555.24,   308.30  C  4557.74    308.30   4559.77    306.27   4559.77    303.77  " /><text style="&st18;" transform="matrix(&st16;  4553.05  305.74 )">B</text><text style="&st18;" transform="matrix(&st16;  4551.31  295.54 )">SD</text></g><g ewd:lineID="191"><text style="&st18;" transform="matrix(&st16;  4509.45  305.74 )">49</text><path style="stroke-width: 1.42 ;&st7;   " d=" M  4525.78,   303.77  C  4525.78    301.26   4523.75    299.24   4521.24    299.24  " /><path style="stroke-width: 1.42 ;&st7;   " d=" M  4521.24,   299.24  C  4518.74    299.24   4516.71    301.26   4516.71    303.77  " /><path style="stroke-width: 1.42 ;&st7;   " d=" M  4516.71,   303.77  C  4516.71    306.27   4518.74    308.30   4521.24    308.30  " /><path style="stroke-width: 1.42 ;&st7;   " d=" M  4521.24,   308.30  C  4523.75    308.30   4525.78    306.27   4525.78    303.77  " /><text style="&st18;" transform="matrix(&st16;  4519.06  305.74 )">B</text><text style="&st18;" transform="matrix(&st16;  4513.9  295.54 )">NSSB</text></g></g><g ewd:figtype="conn" ewd:figID="4" ewd:code="C51"><path style="stroke-width: 0.85 ;&st7;  " d=" M  4801.70,   218.50  L  4801.70,   214.25  " /><path style="stroke-width: 0.85 ;&st7;  " d=" M  4801.70,   248.24  L  4801.70,   243.99  " /><path style="stroke-width: 1.42 ;&st7;  " d=" M  4801.70,   241.16  L  4807.36,   218.50  " /><path style="stroke-width: 0.85 ;&st7;   " d=" M  4803.11,   219.92  C  4803.11    219.13   4802.48    218.50   4801.70    218.50  " /><path style="stroke-width: 0.85 ;&st7;   " d=" M  4801.70,   218.50  C  4800.92    218.50   4800.28    219.13   4800.28    219.92  " /><path style="stroke-width: 0.85 ;&st7;   " d=" M  4800.28,   219.92  C  4800.28    220.70   4800.92    221.33   4801.70    221.33  " /><path style="stroke-width: 0.85 ;&st7;   " d=" M  4801.70,   221.33  C  4802.48    221.33   4803.11    220.70   4803.11    219.92  " /><path style="stroke-width: 0.85 ;&st7;   " d=" M  4803.11,   242.58  C  4803.11    241.80   4802.48    241.16   4801.70    241.16  " /><path style="stroke-width: 0.85 ;&st7;   " d=" M  4801.70,   241.16  C  4800.92    241.16   4800.28    241.80   4800.28    242.58  " /><path style="stroke-width: 0.85 ;&st7;   " d=" M  4800.28,   242.58  C  4800.28    243.36   4800.92    243.99   4801.70    243.99  " /><path style="stroke-width: 0.85 ;&st7;   " d=" M  4801.70,   243.99  C  4802.48    243.99   4803.11    243.36   4803.11    242.58  " /><path style="stroke-width: 1.42 ;&st7;  " d=" M  4810.19,   248.24  L  4810.19,   214.25  L  4793.20,   214.25  L  4793.20,   248.24  L  4810.19,   248.24  " /><text style="&st18;" transform="matrix(&st16;  4795.51  256.44 )">2</text><text style="&st18;" transform="matrix(&st16;  4795.51  210.56 )">1</text><g ewd:figtype="title"><text style="&st18;" transform="matrix(&st16;  4812.46  223.3 )" ewd:textID="11">Back-Up Light <tspan x="0 " dy="6.0">Switch Assembly</tspan></text><text style="&st18;" transform="matrix(&st16;  4812.45  216.48 )">C51</text></g></g><g ewd:figtype="rb" ewd:figID="22" ewd:code="FUSE3"><path style="stroke-width: 1.42 ;&st7;  " d=" M  4803.82,   112.27  L  4799.57,   112.27  " /><path style="stroke-width: 1.42 ;&st7;  " d=" M  4803.82,   103.77  L  4799.57,   103.77  " /><path style="stroke-width: 0.85 ;&st7;  " d=" M  4801.70,    69.77  L  4801.70,   103.77  " /><path style="stroke-width: 1.42 ;&st7;   " d=" M  4808.07,   108.02  C  4808.07    105.67   4806.17    103.77   4803.82    103.77  " /><path style="stroke-width: 1.42 ;&st7;   " d=" M  4803.82,   112.27  C  4806.17    112.27   4808.07    110.36   4808.07    108.02  " /><path style="stroke-width: 1.42 ;&st7;   " d=" M  4795.32,   108.02  C  4795.32    110.36   4797.23    112.27   4799.57    112.27  " /><path style="stroke-width: 1.42 ;&st7;   " d=" M  4799.57,   103.77  C  4797.23    103.77   4795.32    105.67   4795.32    108.02  " /><path style="stroke-width: 0.28 ;&st9;  " d=" M  4801.70,    98.87  L  4798.86,    96.04  L  4798.86,   100.29  L  4801.70,   103.12  L  4804.53,   100.29  L  4804.53,    96.04  L  4801.70,    98.87  " /><text style="&st18;" transform="matrix(&st16;  4799.9  109.99 )">1</text><text style="&st18;" transform="matrix(&st16;  4795.51  86.47 )">2</text><text style="&st18;" transform="matrix(&st16;  4796.49  32.08 )">(IG)</text><text style="&st18;" transform="matrix(&st16;  4818.12  56.17 )">5A <tspan x="0 " dy="6.0">IG/BACK</tspan></text><path style="stroke-width: 0.85 ;&st7;   " d=" M  4803.11,    68.36  C  4803.11     67.57   4802.48     66.94   4801.70     66.94  " /><path style="stroke-width: 0.85 ;&st7;   " d=" M  4801.70,    66.94  C  4800.92     66.94   4800.28     67.57   4800.28     68.36  " /><path style="stroke-width: 0.85 ;&st7;   " d=" M  4800.28,    68.36  C  4800.28     69.14   4800.92     69.77   4801.70     69.77  " /><path style="stroke-width: 0.85 ;&st7;   " d=" M  4801.70,    69.77  C  4802.48     69.77   4803.11     69.14   4803.11     68.36  " /><path style="stroke-width: 1.42 ;&st7;   " d=" M  4801.70,    47.11  C  4798.96     48.72   4798.05     52.25   4799.66     54.99  " /><path style="stroke-width: 1.42 ;&st7;   " d=" M  4799.66,    54.99  C  4800.18     55.87   4800.82     56.51   4801.70     57.03  " /><path style="stroke-width: 1.42 ;&st7;   " d=" M  4801.70,    66.94  C  4804.44     65.33   4805.35     61.80   4803.73     59.06  " /><path style="stroke-width: 1.42 ;&st7;   " d=" M  4803.73,    59.06  C  4803.21     58.18   4802.58     57.55   4801.70     57.03  " /><path style="stroke-width: 0.85 ;&st7;   " d=" M  4803.11,    45.69  C  4803.11     44.91   4802.48     44.28   4801.70     44.28  " /><path style="stroke-width: 0.85 ;&st7;   " d=" M  4801.70,    44.28  C  4800.92     44.28   4800.28     44.91   4800.28     45.69  " /><path style="stroke-width: 0.85 ;&st7;   " d=" M  4800.28,    45.69  C  4800.28     46.48   4800.92     47.11   4801.70     47.11  " /><path style="stroke-width: 0.85 ;&st7;   " d=" M  4801.70,    47.11  C  4802.48     47.11   4803.11     46.48   4803.11     45.69  " /><path style="stroke-width: 1.42 ;&st7;  " d=" M  4788.95,    35.78  L  4788.95,    78.27  L  4814.44,    78.27  L  4814.44,    35.78  L  4788.95,    35.78  " /></g><g ewd:figtype="conn" ewd:figID="33" ewd:code="E18"><path style="stroke-width: 1.42 ;&st7;  " d=" M  5056.14,   427.56  L  5048.16,   412.55  " /><path style="stroke-width: 0.85 ;&st7;  " d=" M  5039.66,   426.71  L  5039.66,   460.71  " /><path style="stroke-width: 0.85 ;&st7;  " d=" M  5056.66,   426.71  L  5056.66,   435.21  " /><path style="stroke-width: 0.85 ;&st7;  " d=" M  5048.16,   384.22  L  5048.16,   409.72  " /><path style="stroke-width: 0.85 ;&st7;   " d=" M  5049.57,   411.13  C  5049.57    410.35   5048.94    409.72   5048.16    409.72  " /><path style="stroke-width: 0.85 ;&st7;   " d=" M  5048.16,   409.72  C  5047.37    409.72   5046.74    410.35   5046.74    411.13  " /><path style="stroke-width: 0.85 ;&st7;   " d=" M  5046.74,   411.13  C  5046.74    411.92   5047.37    412.55   5048.16    412.55  " /><path style="stroke-width: 0.85 ;&st7;   " d=" M  5048.16,   412.55  C  5048.94    412.55   5049.57    411.92   5049.57    411.13  " /><path style="stroke-width: 0.85 ;&st7;   " d=" M  5058.07,   425.30  C  5058.07    424.52   5057.44    423.88   5056.66    423.88  " /><path style="stroke-width: 0.85 ;&st7;   " d=" M  5056.66,   423.88  C  5055.87    423.88   5055.24    424.52   5055.24    425.30  " /><path style="stroke-width: 0.85 ;&st7;   " d=" M  5055.24,   425.30  C  5055.24    426.08   5055.87    426.71   5056.66    426.71  " /><path style="stroke-width: 0.85 ;&st7;   " d=" M  5056.66,   426.71  C  5057.44    426.71   5058.07    426.08   5058.07    425.30  " /><path style="stroke-width: 0.85 ;&st7;   " d=" M  5041.07,   425.30  C  5041.07    424.52   5040.44    423.88   5039.66    423.88  " /><path style="stroke-width: 0.85 ;&st7;   " d=" M  5039.66,   423.88  C  5038.88    423.88   5038.24    424.52   5038.24    425.30  " /><path style="stroke-width: 0.85 ;&st7;   " d=" M  5038.24,   425.30  C  5038.24    426.08   5038.88    426.71   5039.66    426.71  " /><path style="stroke-width: 0.85 ;&st7;   " d=" M  5039.66,   426.71  C  5040.44    426.71   5041.07    426.08   5041.07    425.30  " /><path style="stroke-width: 1.42 ;&st7;  " d=" M  5014.16,   384.22  L  5014.16,   460.71  L  5073.65,   460.71  L  5073.65,   384.22  L  5014.16,   384.22  " /><path style="stroke-width: 0.85 ;&st7;  " d=" M  5065.15,   435.21  L  5056.65,   435.21  " /><path style="stroke-width: 0.85 ;&st7;  " d=" M  5065.15,   435.21  L  5065.15,   460.71  " /><text style="&st18;" transform="matrix(&st17;  5023.81  434.56 )" ewd:textID="46">Transmission <tspan x="0 " dy="6.0">Control </tspan><tspan x="0 " dy="6.0">Switch</tspan></text><text style="&st18;" transform="matrix(&st16;  5022.38  457.02 )">A/T3</text><text style="&st18;" transform="matrix(&st16;  5030.49  392.41 )">NSSD</text><text style="&st18;" transform="matrix(&st16;  5049.82  457.02 )">ATD</text><text style="&st18;" transform="matrix(&st16;  5033.47  468.9 )">1</text><text style="&st18;" transform="matrix(&st16;  5041.97  380.53 )">4</text><text style="&st18;" transform="matrix(&st16;  5058.97  468.9 )">2</text><g ewd:figtype="title"><text style="&st18;" transform="matrix(&st17;  4997.41  463.61 )">E18</text><text style="&st18;" transform="matrix(&st17;  5004.52  463.61 )" ewd:textID="47">Transmission Floor <tspan x="0 " dy="6.0">Shift Assembly</tspan></text></g></g><g ewd:figtype="conn" ewd:figID="38" ewd:code="C46"><path style="stroke-width: 0.85 ;&st7;   " d=" M  5117.56,   171.76  C  5117.56    170.97   5116.93    170.34   5116.15    170.34  " /><path style="stroke-width: 0.85 ;&st7;   " d=" M  5116.15,   170.34  C  5115.36    170.34   5114.73    170.97   5114.73    171.76  " /><path style="stroke-width: 0.85 ;&st7;   " d=" M  5114.73,   171.76  C  5114.73    172.54   5115.36    173.17   5116.15    173.17  " /><path style="stroke-width: 0.85 ;&st7;   " d=" M  5116.15,   173.17  C  5116.93    173.17   5117.56    172.54   5117.56    171.76  " /><path style="stroke-width: 0.85 ;&st7;   " d=" M  5151.56,   171.76  C  5151.56    170.97   5150.92    170.34   5150.14    170.34  " /><path style="stroke-width: 0.85 ;&st7;   " d=" M  5150.14,   170.34  C  5149.36    170.34   5148.72    170.97   5148.72    171.76  " /><path style="stroke-width: 0.85 ;&st7;   " d=" M  5148.72,   171.76  C  5148.72    172.54   5149.36    173.17   5150.14    173.17  " /><path style="stroke-width: 0.85 ;&st7;   " d=" M  5150.14,   173.17  C  5150.92    173.17   5151.56    172.54   5151.56    171.76  " /><path style="stroke-width: 0.85 ;&st7;   " d=" M  5083.57,   154.76  C  5083.57    153.98   5082.93    153.34   5082.15    153.34  " /><path style="stroke-width: 0.85 ;&st7;   " d=" M  5082.15,   153.34  C  5081.37    153.34   5080.73    153.98   5080.73    154.76  " /><path style="stroke-width: 0.85 ;&st7;   " d=" M  5080.73,   154.76  C  5080.73    155.54   5081.37    156.18   5082.15    156.18  " /><path style="stroke-width: 0.85 ;&st7;   " d=" M  5082.15,   156.18  C  5082.93    156.18   5083.57    155.54   5083.57    154.76  " /><path style="stroke-width: 0.85 ;&st7;   " d=" M  5151.56,   154.76  C  5151.56    153.98   5150.92    153.34   5150.14    153.34  " /><path style="stroke-width: 0.85 ;&st7;   " d=" M  5150.14,   153.34  C  5149.36    153.34   5148.72    153.98   5148.72    154.76  " /><path style="stroke-width: 0.85 ;&st7;   " d=" M  5148.72,   154.76  C  5148.72    155.54   5149.36    156.18   5150.14    156.18  " /><path style="stroke-width: 0.85 ;&st7;   " d=" M  5150.14,   156.18  C  5150.92    156.18   5151.56    155.54   5151.56    154.76  " /><path style="stroke-width: 0.85 ;&st7;   " d=" M  5049.57,   137.76  C  5049.57    136.98   5048.94    136.35   5048.16    136.35  " /><path style="stroke-width: 0.85 ;&st7;   " d=" M  5048.16,   136.35  C  5047.37    136.35   5046.74    136.98   5046.74    137.76  " /><path style="stroke-width: 0.85 ;&st7;   " d=" M  5046.74,   137.76  C  5046.74    138.54   5047.37    139.18   5048.16    139.18  " /><path style="stroke-width: 0.85 ;&st7;   " d=" M  5048.16,   139.18  C  5048.94    139.18   5049.57    138.54   5049.57    137.76  " /><path style="stroke-width: 0.85 ;&st7;   " d=" M  5151.56,   137.76  C  5151.56    136.98   5150.92    136.35   5150.14    136.35  " /><path style="stroke-width: 0.85 ;&st7;   " d=" M  5150.14,   136.35  C  5149.36    136.35   5148.72    136.98   5148.72    137.76  " /><path style="stroke-width: 0.85 ;&st7;   " d=" M  5148.72,   137.76  C  5148.72    138.54   5149.36    139.18   5150.14    139.18  " /><path style="stroke-width: 0.85 ;&st7;   " d=" M  5150.14,   139.18  C  5150.92    139.18   5151.56    138.54   5151.56    137.76  " /><path style="stroke-width: 0.85 ;&st7;   " d=" M  4947.59,    86.77  C  4947.59     85.99   4946.96     85.35   4946.17     85.35  " /><path style="stroke-width: 0.85 ;&st7;   " d=" M  4946.17,    85.35  C  4945.39     85.35   4944.76     85.99   4944.76     86.77  " /><path style="stroke-width: 0.85 ;&st7;   " d=" M  4944.76,    86.77  C  4944.76     87.55   4945.39     88.19   4946.17     88.19  " /><path style="stroke-width: 0.85 ;&st7;   " d=" M  4946.17,    88.19  C  4946.96     88.19   4947.59     87.55   4947.59     86.77  " /><path style="stroke-width: 0.85 ;&st7;   " d=" M  5151.56,    86.77  C  5151.56     85.99   5150.92     85.35   5150.14     85.35  " /><path style="stroke-width: 0.85 ;&st7;   " d=" M  5150.14,    85.35  C  5149.36     85.35   5148.72     85.99   5148.72     86.77  " /><path style="stroke-width: 0.85 ;&st7;   " d=" M  5148.72,    86.77  C  5148.72     87.55   5149.36     88.19   5150.14     88.19  " /><path style="stroke-width: 0.85 ;&st7;   " d=" M  5150.14,    88.19  C  5150.92     88.19   5151.56     87.55   5151.56     86.77  " /><path style="stroke-width: 0.85 ;&st7;   " d=" M  4913.60,   103.77  C  4913.60    102.99   4912.96    102.35   4912.18    102.35  " /><path style="stroke-width: 0.85 ;&st7;   " d=" M  4912.18,   102.35  C  4911.40    102.35   4910.76    102.99   4910.76    103.77  " /><path style="stroke-width: 0.85 ;&st7;   " d=" M  4910.76,   103.77  C  4910.76    104.55   4911.40    105.18   4912.18    105.18  " /><path style="stroke-width: 0.85 ;&st7;   " d=" M  4912.18,   105.18  C  4912.96    105.18   4913.60    104.55   4913.60    103.77  " /><path style="stroke-width: 0.85 ;&st7;   " d=" M  4981.58,   103.77  C  4981.58    102.99   4980.95    102.35   4980.17    102.35  " /><path style="stroke-width: 0.85 ;&st7;   " d=" M  4980.17,   102.35  C  4979.39    102.35   4978.75    102.99   4978.75    103.77  " /><path style="stroke-width: 0.85 ;&st7;   " d=" M  4978.75,   103.77  C  4978.75    104.55   4979.39    105.18   4980.17    105.18  " /><path style="stroke-width: 0.85 ;&st7;   " d=" M  4980.17,   105.18  C  4980.95    105.18   4981.58    104.55   4981.58    103.77  " /><path style="stroke-width: 0.85 ;&st7;   " d=" M  5015.58,   120.77  C  5015.58    119.98   5014.94    119.35   5014.16    119.35  " /><path style="stroke-width: 0.85 ;&st7;   " d=" M  5014.16,   119.35  C  5013.38    119.35   5012.75    119.98   5012.75    120.77  " /><path style="stroke-width: 0.85 ;&st7;   " d=" M  5012.75,   120.77  C  5012.75    121.55   5013.38    122.18   5014.16    122.18  " /><path style="stroke-width: 0.85 ;&st7;   " d=" M  5014.16,   122.18  C  5014.94    122.18   5015.58    121.55   5015.58    120.77  " /><path style="stroke-width: 0.85 ;&st7;   " d=" M  5151.56,   120.77  C  5151.56    119.98   5150.92    119.35   5150.14    119.35  " /><path style="stroke-width: 0.85 ;&st7;   " d=" M  5150.14,   119.35  C  5149.36    119.35   5148.72    119.98   5148.72    120.77  " /><path style="stroke-width: 0.85 ;&st7;   " d=" M  5148.72,   120.77  C  5148.72    121.55   5149.36    122.18   5150.14    122.18  " /><path style="stroke-width: 0.85 ;&st7;   " d=" M  5150.14,   122.18  C  5150.92    122.18   5151.56    121.55   5151.56    120.77  " /><path style="stroke-width: 0.85 ;&st7;  " d=" M  5117.56,   171.76  L  5148.72,   171.76  " /><path style="stroke-width: 0.85 ;&st7;  " d=" M  5083.57,   154.76  L  5148.72,   154.76  " /><path style="stroke-width: 0.85 ;&st7;  " d=" M  5049.57,   137.76  L  5148.72,   137.76  " /><path style="stroke-width: 0.85 ;&st7;  " d=" M  4947.59,    86.77  L  5148.72,    86.77  " /><path style="stroke-width: 0.85 ;&st7;  " d=" M  5099.15,    61.28  L  5099.15,   180.26  " /><path style="stroke-width: 1.42 ;&st7;  " d=" M  5167.13,   180.26  L  4861.19,   180.26  L  4861.19,    61.28  L  5167.13,    61.28  L  5167.13,   180.26  " /><path style="stroke-width: 0.85 ;&st7;  " d=" M  4861.19,    95.27  L  5167.13,    95.27  " /><path style="stroke-width: 0.85 ;&st7;  " d=" M  4861.19,   112.27  L  5167.13,   112.27  " /><path style="stroke-width: 0.85 ;&st7;  " d=" M  4861.19,   129.26  L  5167.13,   129.26  " /><path style="stroke-width: 0.85 ;&st7;  " d=" M  4861.19,   146.26  L  5167.13,   146.26  " /><path style="stroke-width: 0.85 ;&st7;  " d=" M  4861.19,   163.26  L  5167.13,   163.26  " /><path style="stroke-width: 0.85 ;&st7;  " d=" M  5133.14,    61.28  L  5133.14,   180.26  " /><path style="stroke-width: 0.85 ;&st7;  " d=" M  4895.18,    61.28  L  4895.18,   180.26  " /><path style="stroke-width: 0.85 ;&st7;  " d=" M  4929.17,    61.28  L  4929.17,   180.26  " /><path style="stroke-width: 0.85 ;&st7;  " d=" M  4963.17,    61.28  L  4963.17,   180.26  " /><path style="stroke-width: 0.85 ;&st7;  " d=" M  4997.16,    61.28  L  4997.16,   180.26  " /><path style="stroke-width: 0.85 ;&st7;  " d=" M  5031.16,    61.28  L  5031.16,   180.26  " /><path style="stroke-width: 0.85 ;&st7;  " d=" M  5065.15,    61.28  L  5065.15,   180.26  " /><path style="stroke-width: 0.85 ;&st7;  " d=" M  4913.59,   103.77  L  4978.75,   103.77  " /><path style="stroke-width: 0.85 ;&st7;  " d=" M  5015.58,   120.77  L  5148.72,   120.77  " /><path style="stroke-width: 0.85 ;&st7;  " d=" M  4861.19,    78.27  L  5167.13,    78.27  " /><text style="&st18;" transform="matrix(&st16;  5148.03  71.74 )">E</text><text style="&st18;" transform="matrix(&st16;  5112.74  71.74 )">L</text><text style="&st18;" transform="matrix(&st16;  4874.78  88.74 )">P</text><text style="&st18;" transform="matrix(&st16;  4874.78  105.74 )">R</text><text style="&st18;" transform="matrix(&st16;  4875.88  122.73 )">N</text><text style="&st18;" transform="matrix(&st16;  4875.8  139.73 )">D</text><text style="&st18;" transform="matrix(&st16;  4876.38  156.73 )">2</text><text style="&st18;" transform="matrix(&st16;  4876.11  173.73 )">L</text><text style="&st18;" transform="matrix(&st16;  5080.35  71.74 )">2</text><text style="&st18;" transform="matrix(&st16;  4910.38  71.74 )">+</text><text style="&st18;" transform="matrix(&st16;  4978.37  71.74 )">-</text><text style="&st18;" transform="matrix(&st16;  5011.86  71.74 )">N</text><text style="&st18;" transform="matrix(&st16;  5045.77  71.74 )">D</text><text style="&st18;" transform="matrix(&st16;  4942.77  71.74 )">P</text><text style="&st18;" transform="matrix(&st16;  5143.96  188.45 )">6</text><text style="&st18;" transform="matrix(&st16;  5007.98  188.45 )">5</text><text style="&st18;" transform="matrix(&st16;  4973.98  188.45 )">7</text><text style="&st18;" transform="matrix(&st16;  4905.99  188.45 )">1</text><text style="&st18;" transform="matrix(&st16;  4939.99  188.45 )">4</text><text style="&st18;" transform="matrix(&st16;  5041.97  188.45 )">3</text><text style="&st18;" transform="matrix(&st16;  5075.97  188.45 )">2</text><text style="&st18;" transform="matrix(&st16;  5109.96  188.45 )">8</text><g ewd:figtype="title"><text style="&st18;" transform="matrix(&st16;  4968.26  50.75 )">C46</text><text style="&st18;" transform="matrix(&st16;  4968.26  57.58 )" ewd:textID="41">Park/Neutral Position Switch Assembly</text></g></g><g ewd:figtype="w2w" ewd:figID="95" ewd:code="AE6"><path style="stroke-width: 1.42 ;&st7;  " d=" M  4593.48,   398.39  L  4589.23,   394.14  L  4584.98,   398.39  " /><path style="stroke-width: 1.42 ;&st7;  " d=" M  4593.48,   401.78  L  4589.23,   397.54  L  4584.98,   401.78  " /><text style="&st18;" transform="matrix(&st16;  4573.5  390.44 )">14</text></g><g ewd:figtype="w2w" ewd:figID="96" ewd:code="AE6"><path style="stroke-width: 1.42 ;&st7;  " d=" M  4627.47,   398.39  L  4623.23,   394.14  L  4618.98,   398.39  " /><path style="stroke-width: 1.42 ;&st7;  " d=" M  4627.47,   401.78  L  4623.23,   397.54  L  4618.98,   401.78  " /><text style="&st18;" transform="matrix(&st16;  4607.49  390.44 )">13</text></g><g ewd:figtype="w2w" ewd:figID="97" ewd:code="CA1"><path style="stroke-width: 1.42 ;&st7;  " d=" M  4805.94,   316.80  L  4801.70,   312.55  L  4797.45,   316.80  " /><path style="stroke-width: 1.42 ;&st7;  " d=" M  4805.94,   313.40  L  4801.70,   309.15  L  4797.45,   313.40  " /><text style="&st18;" transform="matrix(&st16;  4789.07  305.45 )">5</text></g><g ewd:figtype="w2w" ewd:figID="98" ewd:code="CA1"><path style="stroke-width: 1.42 ;&st7;  " d=" M  4805.94,   140.60  L  4801.70,   144.84  L  4797.45,   140.60  " /><path style="stroke-width: 1.42 ;&st7;  " d=" M  4797.45,   137.20  L  4801.70,   141.45  L  4805.94,   137.20  " /><text style="&st18;" transform="matrix(&st16;  4789.07  152.48 )">3</text></g></svg>