﻿<?xml version="1.0" encoding="utf-8"?>
<!DOCTYPE svg PUBLIC "-//W3C//DTD SVG 1.0//EN" "http://www.w3.org/TR/2001/REC-SVG-20010904/DTD/svg10.dtd"[
	<!ENTITY ns_flows "http://ns.adobe.com/Flows/1.0/">
	<!ENTITY ns_svg "http://www.w3.org/2000/svg">
	<!ENTITY ns_xlink "http://www.w3.org/1999/xlink">
	<!ENTITY st0 "font-size:7px;font-family:'MS-PGothic';adobe-font-script:japanese;">
	<!ENTITY st1 "font-size:6px;font-family:'ArialMT';">
	<!-- White fill  -->
	<!ENTITY st2 "fill:#FFFFFF;stroke:#000000; stroke-width:1.41;stroke-linecap:round;stroke-linejoin:round;">
	<!-- Yellow fill  -->
	<!ENTITY st3 "fill:#FFFFCC;stroke:#FFFFCC; stroke-width:0.1;stroke-linecap:round;stroke-linejoin:round;">
	<!-- Gray fill  -->
	<!ENTITY st4 "fill:#CCCCCC;stroke:#CCCCCC; stroke-width:0.1;stroke-linecap:round;stroke-linejoin:round;">
	<!-- Light-blue fill -->
	<!ENTITY st5 "fill:#CCECF4;stroke:#000000; stroke-width:1.133;stroke-linecap:round;stroke-linejoin:round;">
	<!ENTITY st6 "fill:none;stroke-linecap:butt; stroke-linejoin:round;">
	<!ENTITY st7 "fill:none;stroke:#000000;stroke-linecap:round;stroke-linejoin:round;">
	<!ENTITY st8 "enable-background:new    ;">
	<!-- Black fill -->
	<!ENTITY st9 "fill:#000000;stroke:#000000; stroke-linecap:round;stroke-linejoin:round;">
	<!-- SRS note   -->
	<!ENTITY st10 "font-size:9px;font-family:'ArialMT';">
	<!ENTITY st11 "font-size:9px;font-family:'Svg Symbol';">
	<!ENTITY st12 "font-size:6px;font-family:'Svg Symbol';">
	<!ENTITY st13 "fill:none;stroke:#ff0000;stroke-linecap:round;stroke-linejoin:round;">
	<!-- Yellow fill  -->
	<!ENTITY st14 "fill:#FFFF00;stroke:#FFFF00; stroke-width:0.1;stroke-linecap:round;stroke-linejoin:round;">
	<!ENTITY st15 "font-size:6px;font-family:'MS-PGothic';adobe-font-script:japanese;">
	<!ENTITY st16 "1.00 0.00 0.00 1.00">
	<!ENTITY st17 "0.00 -1.00 1.00 0.00">
	<!ENTITY st18 "font-size:6px;font-family:'Arial';">
	<!ENTITY st19 "font-size:9px;font-family:'Arial';">
	<!ENTITY st20 "font-size:6px;font-family:'MS-PGothic','MS PGothic';adobe-font-script:japanese;">
	<!ENTITY st21 "font-size:7px;font-family:'MS-PGothic','MS PGothic';adobe-font-script:japanese;">
	<!ATTLIST svg
		xmlns:ewd CDATA #FIXED "http://shcl.co.jp/ewd"
		xmlns:a CDATA #FIXED "http://ns.adobe.com/AdobeSVGViewerExtensions/3.0/"
		ewd:ver CDATA #IMPLIED
	>
	<!ATTLIST a
		ewd:lineID CDATA #IMPLIED
		ewd:groupID CDATA #IMPLIED
		ewd:figtype CDATA #IMPLIED
		ewd:code CDATA #IMPLIED
		ewd:figID CDATA #IMPLIED
		ewd:pinNo CDATA #IMPLIED
		ewd:comment CDATA #IMPLIED >
	<!ATTLIST g
		ewd:lineID CDATA #IMPLIED
		ewd:groupID CDATA #IMPLIED
		ewd:figtype CDATA #IMPLIED
		ewd:code CDATA #IMPLIED
		ewd:figID CDATA #IMPLIED
		ewd:pinNo CDATA #IMPLIED
		ewd:comment CDATA #IMPLIED >
	<!ATTLIST text
		ewd:textID CDATA #IMPLIED >
	<!ATTLIST title
		ewd:textID CDATA #IMPLIED >
]>
<!-- Generator: Shintec Hozumi YS   -->
<svg onload="call_execInitLoadProc_svg('system')" style="overflow:visible;  enable-background:new 0 0 2077.790 710.000" viewBox="0 0 2077.790 710.000" height="710.000" width="2077.790" xml:space="preserve" ewd:ver="2.1.2.9" xmlns="&ns_svg;" xmlns:a="http://ns.adobe.com/AdobeSVGViewerExtensions/3.0/" xmlns:ewd="http://shcl.co.jp/ewd" xmlns:xlink="&ns_xlink;">
<text style="&st18;" transform="matrix(&st16;  451.26  563.22 )">C1</text><text style="&st18;" transform="matrix(&st16;  384.48  558.99 )">W-B</text><text style="&st18;" transform="matrix(&st16;  451.26  597.21 )">C2</text><text style="&st18;" transform="matrix(&st16;  384.48  592.99 )">W-B</text><text style="&st18;" transform="matrix(&st16;  384.48  660.98 )">W-B</text><text style="&st18;" transform="matrix(&st16;  451.26  665.2 )">C4</text><path style="stroke-width: 1.42 ;&st7;   " d=" M   229.60,   529.71  C   227.70    531.85    227.64    534.98    229.46    537.20  " /><text style="&st18;" transform="matrix(&st17;  285.26  203.21 )">W-B</text><text style="&st18;" transform="matrix(&st16;  451.26  631.21 )">C3</text><text style="&st18;" transform="matrix(&st17;  361.74  653.63 )">W-B</text><text style="&st18;" transform="matrix(&st16;  384.48  626.98 )">W-B</text><text style="&st18;" transform="matrix(&st17;  361.74  619.64 )">W-B</text><path style="stroke-width: 1.42 ;&st7;   " d=" M   229.60,   563.71  C   227.70    565.85    227.64    568.98    229.46    571.19  " /><path style="stroke-width: 1.42 ;&st7;  " d=" M   361.91,   588.19  L   356.94,   593.16  " /><path style="stroke-width: 1.42 ;&st7;  " d=" M   368.97,   605.18  L   373.94,   600.22  " /><path style="stroke-width: 1.42 ;&st7;  " d=" M   356.94,   600.22  L   361.91,   605.18  " /><path style="stroke-width: 1.42 ;&st7;  " d=" M   373.94,   593.16  L   368.97,   588.19  " /><text style="&st18;" transform="matrix(&st16;  9.34  223.28 )">A7</text><text style="&st18;" transform="matrix(&st16;  333.49  660.98 )">W-B</text><text style="&st18;" transform="matrix(&st16;  384.48  117.07 )">W-B</text><text style="&st18;" transform="matrix(&st17;  302.25  203.21 )">W-B</text><text style="&st18;" transform="matrix(&st16;  451.26  121.29 )">A5</text><path style="stroke-width: 1.42 ;&st7;   " d=" M   229.60,   504.22  C   227.70    506.36    227.64    509.49    229.46    511.70  " /><text style="&st18;" transform="matrix(&st16;  191.23  533.5 )" ewd:textID="2">(Shielded)</text><text style="&st18;" transform="matrix(&st16;  191.23  508.0 )" ewd:textID="2">(Shielded)</text><text style="&st18;" transform="matrix(&st17;  157.78  659.73 )">BR</text><text style="&st18;" transform="matrix(&st16;  112.53  660.98 )">W-B</text><text style="&st18;" transform="matrix(&st16;  384.48  49.08 )">W-B</text><text style="&st18;" transform="matrix(&st16;  451.26  53.3 )">A4</text><text style="&st18;" transform="matrix(&st16;  112.53  185.06 )">W-B</text><text style="&st18;" transform="matrix(&st16;  9.34  196.39 )" ewd:textID="40">Headlight Assembly RH</text><text style="&st18;" transform="matrix(&st17;  302.25  636.63 )">W-B</text><text style="&st18;" transform="matrix(&st17;  302.25  551.65 )">W-B</text><text style="&st18;" transform="matrix(&st16;  9.34  189.28 )">A2</text><text style="&st18;" transform="matrix(&st16;  451.26  427.24 )">E9</text><text style="&st18;" transform="matrix(&st16;  386.89  423.02 )">BR</text><text style="&st18;" transform="matrix(&st16;  386.89  448.51 )">BR</text><text style="&st18;" transform="matrix(&st16;  386.89  474.01 )">BR</text><text style="&st18;" transform="matrix(&st16;  383.28  434.35 )">(A/T)</text><text style="&st18;" transform="matrix(&st16;  383.28  459.84 )">(A/T)</text><text style="&st18;" transform="matrix(&st16;  383.28  485.34 )">(A/T)</text><text style="&st18;" transform="matrix(&st17;  313.59  552.85 )">(A/T)</text><text style="&st18;" transform="matrix(&st17;  313.59  637.84 )">(A/T)</text><text style="&st18;" transform="matrix(&st16;  112.53  219.05 )">W-B</text><text style="&st18;" transform="matrix(&st16;  451.27  672.31 )" ewd:textID="47">Ignition Coil <tspan x="0 " dy="6.0">Assembly No. 4</tspan></text><text style="&st18;" transform="matrix(&st16;  451.27  638.31 )" ewd:textID="46">Ignition Coil <tspan x="0 " dy="6.0">Assembly No. 3</tspan></text><text style="&st18;" transform="matrix(&st16;  451.27  604.32 )" ewd:textID="45">Ignition Coil <tspan x="0 " dy="6.0">Assembly No. 2</tspan></text><text style="&st18;" transform="matrix(&st16;  451.27  570.33 )" ewd:textID="44">Ignition Coil <tspan x="0 " dy="6.0">Assembly No. 1</tspan></text><text style="&st18;" transform="matrix(&st16;  451.27  434.35 )" ewd:textID="67">Transmission <tspan x="0 " dy="6.0">Control ECU </tspan><tspan x="0 " dy="6.0">Assembly</tspan></text><text style="&st18;" transform="matrix(&st16;  451.27  128.4 )" ewd:textID="31">Fog Light <tspan x="0 " dy="6.0">Assembly RH</tspan></text><text style="&st18;" transform="matrix(&st16;  451.27  60.41 )" ewd:textID="40">Headlight <tspan x="0 " dy="6.0">Assembly RH</tspan></text><text style="&st18;" transform="matrix(&st16;  9.34  631.21 )">C24</text><text style="&st18;" transform="matrix(&st16;  9.34  638.31 )">ECM</text><text style="&st18;" transform="matrix(&st16;  112.53  626.98 )">W-B</text><text style="&st18;" transform="matrix(&st16;  112.53  151.06 )">W-B</text><text style="&st18;" transform="matrix(&st16;  9.34  155.29 )">A9</text><text style="&st18;" transform="matrix(&st16;  9.34  162.39 )" ewd:textID="64">Side Turn Signal <tspan x="0 " dy="6.0">Light Assembly RH</tspan></text><text style="&st18;" transform="matrix(&st16;  110.63  230.38 )">(RHD)</text><path style="stroke-width: 1.42 ;&st7;   " d=" M   229.60,   589.20  C   227.70    591.34    227.64    594.47    229.46    596.69  " /><text style="&st18;" transform="matrix(&st16;  191.23  592.99 )" ewd:textID="2">(Shielded)</text><text style="&st18;" transform="matrix(&st16;  191.23  567.49 )" ewd:textID="2">(Shielded)</text><path style="stroke-width: 1.42 ;&st7;   " d=" M   229.60,   623.20  C   227.70    625.34    227.64    628.47    229.46    630.68  " /><text style="&st18;" transform="matrix(&st16;  191.23  626.98 )" ewd:textID="2">(Shielded)</text><text style="&st18;" transform="matrix(&st16;  9.34  230.38 )" ewd:textID="19">Brake Fluid Level <tspan x="0 " dy="6.0">Warning Switch </tspan><tspan x="0 " dy="6.0">(Brake Master </tspan><tspan x="0 " dy="6.0">Cylinder Reservoir </tspan><tspan x="0 " dy="6.0">Sub-Assembly)</tspan></text><path style="stroke-width: 1.42 ;&st7;  " d=" M   314.45,   151.23  L   309.48,   146.26  " /><path style="stroke-width: 1.42 ;&st7;  " d=" M   297.45,   158.29  L   302.42,   163.26  " /><path style="stroke-width: 1.42 ;&st7;  " d=" M   309.48,   163.26  L   314.45,   158.29  " /><path style="stroke-width: 1.42 ;&st7;  " d=" M   302.42,   146.26  L   297.45,   151.23  " /><text style="&st18;" transform="matrix(&st16;  384.48  83.07 )">W-B</text><text style="&st18;" transform="matrix(&st16;  451.26  87.3 )">A6</text><text style="&st18;" transform="matrix(&st16;  451.27  94.41 )" ewd:textID="29">Fan with Motor <tspan x="0 " dy="6.0">Assembly</tspan></text><path style="stroke-width: 1.42 ;&st7;  " d=" M   373.94,   627.15  L   368.97,   622.18  " /><path style="stroke-width: 1.42 ;&st7;  " d=" M   356.94,   634.21  L   361.91,   639.18  " /><path style="stroke-width: 1.42 ;&st7;  " d=" M   368.97,   639.18  L   373.94,   634.21  " /><path style="stroke-width: 1.42 ;&st7;  " d=" M   361.91,   622.18  L   356.94,   627.15  " /><path style="stroke-width: 1.42 ;&st7;  " d=" M   373.94,   661.15  L   368.97,   656.18  " /><path style="stroke-width: 1.42 ;&st7;  " d=" M   356.94,   668.20  L   361.91,   673.17  " /><path style="stroke-width: 1.42 ;&st7;  " d=" M   368.97,   673.17  L   373.94,   668.20  " /><path style="stroke-width: 1.42 ;&st7;  " d=" M   361.91,   656.18  L   356.94,   661.15  " /><text style="&st18;" transform="matrix(&st16;  385.72  94.41 )">(*8)</text><text style="&st18;" transform="matrix(&st16;  384.48  151.06 )">W-B</text><text style="&st18;" transform="matrix(&st16;  451.26  155.29 )">A12</text><text style="&st18;" transform="matrix(&st16;  451.27  162.39 )" ewd:textID="16">Blower Resistor</text><text style="&st18;" transform="matrix(&st16;  367.48  210.55 )">W-B</text><text style="&st18;" transform="matrix(&st16;  368.72  221.88 )">(*7)</text><text style="&st18;" transform="matrix(&st16;  385.72  162.39 )">(*7)</text><text style="&st18;" transform="matrix(&st16;  113.77  162.39 )">(*9)</text><path style="stroke-width: 1.42 ;&st7;  " d=" M   297.45,   579.69  L   305.95,   579.69  " /><path style="stroke-width: 1.42 ;&st7;  " d=" M     8.50,   214.25  L    93.48,   214.25  L    93.48,   265.24  L     8.50,   265.24  L     8.50,   214.25  " /><text style="&st18;" transform="matrix(&st16;  84.43  224.72 )">(-)</text><text style="&st18;" transform="matrix(&st16;  426.66  564.66 )">(-)</text><path style="stroke-width: 1.42 ;&st7;  " d=" M   424.93,   588.19  L   424.93,   613.68  L   509.91,   613.68  L   509.91,   588.19  L   424.93,   588.19  " /><text style="&st18;" transform="matrix(&st16;  426.66  598.65 )">(-)</text><path style="stroke-width: 1.42 ;&st7;  " d=" M   424.93,   622.18  L   424.93,   647.68  L   509.91,   647.68  L   509.91,   622.18  L   424.93,   622.18  " /><text style="&st18;" transform="matrix(&st16;  426.66  666.64 )">(-)</text><path style="stroke-width: 1.42 ;&st7;  " d=" M   424.93,   656.18  L   424.93,   681.67  L   509.91,   681.67  L   509.91,   656.18  L   424.93,   656.18  " /><text style="&st18;" transform="matrix(&st16;  426.66  632.65 )">(-)</text><path style="stroke-width: 1.42 ;&st7;  " d=" M   424.93,   554.19  L   424.93,   579.69  L   509.91,   579.69  L   509.91,   554.19  L   424.93,   554.19  " /><text style="&st18;" transform="matrix(&st16;  80.71  632.65 )">(E1)</text><path style="stroke-width: 1.42 ;&st7;  " d=" M    93.48,   681.67  L    93.48,   622.18  L     8.50,   622.18  L     8.50,   681.67  L    93.48,   681.67  " /><text style="&st18;" transform="matrix(&st16;  426.66  122.73 )">(-)</text><text style="&st18;" transform="matrix(&st16;  77.6  666.64 )">(E01)</text><path style="stroke-width: 1.42 ;&st7;  " d=" M   424.93,   112.27  L   424.93,   137.76  L   509.91,   137.76  L   509.91,   112.27  L   424.93,   112.27  " /><text style="&st18;" transform="matrix(&st16;  426.66  54.75 )">(-)</text><path style="stroke-width: 1.42 ;&st7;  " d=" M   424.93,    44.28  L   424.93,    69.77  L   509.91,    69.77  L   509.91,    44.28  L   424.93,    44.28  " /><text style="&st18;" transform="matrix(&st16;  84.43  190.72 )">(-)</text><path style="stroke-width: 1.42 ;&st7;  " d=" M     8.50,   180.26  L     8.50,   205.75  L    93.48,   205.75  L    93.48,   180.26  L     8.50,   180.26  " /><text style="&st18;" transform="matrix(&st16;  426.66  428.68 )">(E01)</text><path style="stroke-width: 1.42 ;&st7;  " d=" M   424.93,   418.22  L   424.93,   494.70  L   509.91,   494.70  L   509.91,   418.22  L   424.93,   418.22  " /><text style="&st18;" transform="matrix(&st16;  426.66  454.18 )">(E02)</text><text style="&st18;" transform="matrix(&st16;  426.66  479.67 )">(E1)</text><text style="&st18;" transform="matrix(&st16;  84.43  156.73 )">(-)</text><path style="stroke-width: 1.42 ;&st7;  " d=" M     8.50,   146.26  L     8.50,   171.76  L    93.48,   171.76  L    93.48,   146.26  L     8.50,   146.26  " /><text style="&st18;" transform="matrix(&st16;  426.66  88.74 )">(-)</text><path style="stroke-width: 1.42 ;&st7;  " d=" M   424.93,    78.27  L   424.93,   103.77  L   509.91,   103.77  L   509.91,    78.27  L   424.93,    78.27  " /><text style="&st18;" transform="matrix(&st16;  426.66  156.73 )">(-)</text><path style="stroke-width: 1.42 ;&st7;  " d=" M   424.93,   146.26  L   424.93,   171.76  L   509.91,   171.76  L   509.91,   146.26  L   424.93,   146.26  " /><g ewd:figtype="conn" ewd:figID="3" ewd:code="E46"><path style="stroke-width: 0.85 ;&st7;  " d=" M   338.75,   476.70  L   338.48,   477.17  L   338.38,   477.71  L   338.48,   478.24  L   338.75,   478.71  L   339.16,   479.05  L   339.67,   479.24  L   340.22,   479.24  L   340.72,   479.05  L   341.14,   478.71  L   341.41,   478.24  L   341.50,   477.71  L   341.41,   477.17  L   341.14,   476.70  L   340.72,   476.36  L   340.22,   476.17  L   339.67,   476.17  L   339.16,   476.36  L   338.75,   476.70  L   339.14,   477.41  L   339.14,   478.00  L   339.52,   478.44  L   340.09,   478.54  L   340.59,   478.25  L   340.79,   477.71  L   340.59,   477.16  L   340.09,   476.87  L   339.52,   476.97  L   339.94,   477.71  " /><path style="stroke-width: 0.85 ;&st7;  " d=" M   338.75,   451.21  L   338.48,   451.68  L   338.38,   452.21  L   338.48,   452.74  L   338.75,   453.21  L   339.16,   453.56  L   339.67,   453.75  L   340.22,   453.75  L   340.72,   453.56  L   341.14,   453.21  L   341.41,   452.74  L   341.50,   452.21  L   341.41,   451.68  L   341.14,   451.21  L   340.72,   450.86  L   340.22,   450.67  L   339.67,   450.67  L   339.16,   450.86  L   338.75,   451.21  L   339.14,   451.92  L   339.14,   452.50  L   339.52,   452.95  L   340.09,   453.05  L   340.59,   452.76  L   340.79,   452.21  L   340.59,   451.66  L   340.09,   451.37  L   339.52,   451.47  L   339.94,   452.21  " /><path style="stroke-width: 0.85 ;&st7;  " d=" M   339.94,   452.21  L   348.44,   452.21  " /><path style="stroke-width: 0.85 ;&st7;  " d=" M   348.44,   426.71  L   339.94,   426.71  L   339.94,   477.71  " /><path style="stroke-width: 0.85 ;&st7;  " d=" M   331.44,   477.71  L   348.44,   477.71  " /><path style="stroke-width: 1.42 ;&st7;  " d=" M   331.44,   418.22  L   348.44,   418.22  L   348.44,   486.20  L   331.44,   486.20  L   331.44,   418.22  " /><text style="&st18;" transform="matrix(&st16;  351.02  474.02 )">2</text><text style="&st18;" transform="matrix(&st16;  351.02  448.52 )">9</text><text style="&st18;" transform="matrix(&st16;  351.02  423.02 )">8</text><text style="&st18;" transform="matrix(&st16;  325.26  474.02 )">1</text><g ewd:figtype="title"><text style="&st18;" transform="matrix(&st16;  328.04  500.92 )" ewd:textID="48">Junction Connector</text><text style="&st18;" transform="matrix(&st16;  328.03  493.81 )">E46</text></g></g><g ewd:figtype="conn" ewd:figID="4" ewd:code="C25"><path style="stroke-width: 0.85 ;&st7;  " d=" M   160.28,   629.68  L   160.01,   630.15  L   159.91,   630.68  L   160.01,   631.21  L   160.28,   631.68  L   160.69,   632.03  L   161.20,   632.22  L   161.74,   632.22  L   162.25,   632.03  L   162.67,   631.68  L   162.94,   631.21  L   163.03,   630.68  L   162.94,   630.15  L   162.67,   629.68  L   162.25,   629.33  L   161.74,   629.14  L   161.20,   629.14  L   160.69,   629.33  L   160.28,   629.68  L   160.67,   630.39  L   160.67,   630.97  L   161.05,   631.42  L   161.62,   631.52  L   162.12,   631.23  L   162.32,   630.68  L   162.12,   630.13  L   161.62,   629.84  L   161.05,   629.94  L   161.47,   630.68  " /><path style="stroke-width: 0.85 ;&st7;  " d=" M   161.47,   537.20  L   169.97,   537.20  " /><path style="stroke-width: 0.85 ;&st7;  " d=" M   161.47,   639.18  L   161.47,   511.70  L   169.97,   511.70  " /><path style="stroke-width: 1.42 ;&st7;  " d=" M   152.97,   503.20  L   152.97,   639.18  L   169.97,   639.18  L   169.97,   503.20  L   152.97,   503.20  " /><path style="stroke-width: 0.85 ;&st7;  " d=" M   152.97,   630.68  L   169.97,   630.68  " /><path style="stroke-width: 0.85 ;&st7;  " d=" M   160.28,   570.19  L   160.01,   570.66  L   159.91,   571.19  L   160.01,   571.72  L   160.28,   572.19  L   160.69,   572.54  L   161.20,   572.73  L   161.74,   572.73  L   162.25,   572.54  L   162.67,   572.19  L   162.94,   571.72  L   163.03,   571.19  L   162.94,   570.66  L   162.67,   570.19  L   162.25,   569.84  L   161.74,   569.65  L   161.20,   569.65  L   160.69,   569.84  L   160.28,   570.19  L   160.67,   570.90  L   160.67,   571.48  L   161.05,   571.93  L   161.62,   572.03  L   162.12,   571.74  L   162.32,   571.19  L   162.12,   570.64  L   161.62,   570.35  L   161.05,   570.45  L   161.47,   571.19  " /><path style="stroke-width: 0.85 ;&st7;  " d=" M   160.28,   595.68  L   160.01,   596.15  L   159.91,   596.69  L   160.01,   597.22  L   160.28,   597.69  L   160.69,   598.03  L   161.20,   598.22  L   161.74,   598.22  L   162.25,   598.03  L   162.67,   597.69  L   162.94,   597.22  L   163.03,   596.69  L   162.94,   596.15  L   162.67,   595.68  L   162.25,   595.34  L   161.74,   595.15  L   161.20,   595.15  L   160.69,   595.34  L   160.28,   595.68  L   160.67,   596.39  L   160.67,   596.98  L   161.05,   597.42  L   161.62,   597.52  L   162.12,   597.23  L   162.32,   596.69  L   162.12,   596.14  L   161.62,   595.85  L   161.05,   595.95  L   161.47,   596.69  " /><path style="stroke-width: 0.85 ;&st7;  " d=" M   161.47,   571.19  L   169.97,   571.19  " /><path style="stroke-width: 0.85 ;&st7;  " d=" M   161.47,   596.69  L   169.97,   596.69  " /><path style="stroke-width: 0.85 ;&st7;  " d=" M   160.28,   536.19  L   160.01,   536.66  L   159.91,   537.20  L   160.01,   537.73  L   160.28,   538.20  L   160.69,   538.54  L   161.20,   538.73  L   161.74,   538.73  L   162.25,   538.54  L   162.67,   538.20  L   162.94,   537.73  L   163.03,   537.20  L   162.94,   536.66  L   162.67,   536.19  L   162.25,   535.85  L   161.74,   535.66  L   161.20,   535.66  L   160.69,   535.85  L   160.28,   536.19  L   160.67,   536.90  L   160.67,   537.49  L   161.05,   537.93  L   161.62,   538.03  L   162.12,   537.74  L   162.32,   537.20  L   162.12,   536.65  L   161.62,   536.36  L   161.05,   536.46  L   161.47,   537.20  " /><text style="&st18;" transform="matrix(&st16;  172.55  593.0 )">2</text><text style="&st18;" transform="matrix(&st16;  172.55  508.01 )">9</text><text style="&st18;" transform="matrix(&st16;  172.55  533.51 )">8</text><text style="&st18;" transform="matrix(&st16;  172.55  567.5 )">3</text><text style="&st18;" transform="matrix(&st16;  172.55  626.99 )">1</text><text style="&st18;" transform="matrix(&st16;  143.69  626.99 )">11</text><text style="&st18;" transform="matrix(&st16;  155.29  647.37 )">4</text><g ewd:figtype="title"><text style="&st18;" transform="matrix(&st16;  149.57  493.56 )" ewd:textID="48">Junction <tspan x="0 " dy="6.0">Connector</tspan></text><text style="&st18;" transform="matrix(&st16;  149.56  486.45 )">C25</text></g></g><g ewd:code="CE2" ewd:figID="9" ewd:comment="7" ewd:figtype="w2w"><text style="&st18;" transform="matrix(&st16;  293.32  594.41 )">9</text><g ewd:code="" ewd:figID="72" ewd:comment="7" ewd:figtype="commref"><text style="&st18;" transform="matrix(&st16;  314.98  594.41 )">(*7)</text></g></g><g ewd:code="CE1" ewd:figID="10" ewd:comment="8" ewd:figtype="w2w"><path style="stroke-width: 1.42 ;&st7;  " d=" M   310.20,   574.02  L   305.95,   578.27  L   301.70,   574.02  " /><path style="stroke-width: 1.42 ;&st7;  " d=" M   301.70,   570.62  L   305.95,   574.87  L   310.20,   570.62  " /><text style="&st18;" transform="matrix(&st16;  293.32  585.91 )">8</text><g ewd:code="" ewd:figID="73" ewd:comment="8" ewd:figtype="commref"><text style="&st18;" transform="matrix(&st16;  314.98  585.91 )">(*8)</text></g></g><g ewd:figtype="gp" ewd:figID="22" ewd:code="C1"><path style="stroke-width: 0.85 ;&st7;  " d=" M   161.47,   697.25  L   161.47,   701.50  " /><path style="stroke-width: 0.85 ;&st7;  " d=" M   152.97,   701.50  L   169.97,   701.50  " /><path style="stroke-width: 0.85 ;&st7;  " d=" M   157.22,   704.33  L   165.72,   704.33  " /><path style="stroke-width: 0.85 ;&st7;  " d=" M   158.64,   707.17  L   164.31,   707.17  " /><path style="stroke-width: 0.85 ;&st7;  " d=" M   160.06,   710.00  L   162.89,   710.00  " /></g><g ewd:figtype="gp" ewd:figID="23" ewd:code="A1"><path style="stroke-width: 0.85 ;&st7;  " d=" M   287.54,   268.07  L   290.37,   268.07  " /><path style="stroke-width: 0.85 ;&st7;  " d=" M   286.12,   265.24  L   291.78,   265.24  " /><path style="stroke-width: 0.85 ;&st7;  " d=" M   284.70,   262.41  L   293.20,   262.41  " /><path style="stroke-width: 0.85 ;&st7;  " d=" M   280.45,   259.58  L   297.45,   259.58  " /><path style="stroke-width: 0.85 ;&st7;  " d=" M   288.95,   255.33  L   288.95,   259.58  " /></g><g ewd:figtype="gp" ewd:figID="24" ewd:code="C2"><path style="stroke-width: 0.85 ;&st7;  " d=" M   304.53,   710.00  L   307.37,   710.00  " /><path style="stroke-width: 0.85 ;&st7;  " d=" M   303.12,   707.17  L   308.78,   707.17  " /><path style="stroke-width: 0.85 ;&st7;  " d=" M   301.70,   704.33  L   310.20,   704.33  " /><path style="stroke-width: 0.85 ;&st7;  " d=" M   297.45,   701.50  L   314.45,   701.50  " /><path style="stroke-width: 0.85 ;&st7;  " d=" M   305.95,   697.25  L   305.95,   701.50  " /></g><g ewd:figtype="gp" ewd:figID="25" ewd:code="A2"><path style="stroke-width: 0.85 ;&st7;  " d=" M   318.70,   262.41  L   327.20,   262.41  " /><path style="stroke-width: 0.85 ;&st7;  " d=" M   314.45,   259.58  L   331.44,   259.58  " /><path style="stroke-width: 0.85 ;&st7;  " d=" M   322.95,   255.33  L   322.95,   259.58  " /><path style="stroke-width: 0.85 ;&st7;  " d=" M   320.11,   265.24  L   325.78,   265.24  " /><path style="stroke-width: 0.85 ;&st7;  " d=" M   321.53,   268.07  L   324.36,   268.07  " /></g><g ewd:figtype="annex" ewd:figID="55" ewd:code=" "><path style="stroke-width: 1.42 ;&st7;   " d=" M   229.60,   529.71  C   227.70    531.85    227.64    534.98    229.46    537.20  " /><path style="stroke-width: 1.42 ;&st7;   " d=" M   229.32,   544.68  C   231.22    542.54    231.28    539.41    229.46    537.20  " /></g><g ewd:figtype="annex" ewd:figID="56" ewd:code=" "><path style="stroke-width: 1.42 ;&st7;   " d=" M   229.60,   563.71  C   227.70    565.85    227.64    568.98    229.46    571.19  " /><path style="stroke-width: 1.42 ;&st7;   " d=" M   229.32,   578.67  C   231.22    576.53    231.28    573.40    229.46    571.19  " /></g><g ewd:figtype="annex" ewd:figID="58" ewd:code=" "><path style="stroke-width: 1.42 ;&st7;   " d=" M   229.60,   504.22  C   227.70    506.36    227.64    509.49    229.46    511.70  " /><path style="stroke-width: 1.42 ;&st7;   " d=" M   229.32,   519.18  C   231.22    517.04    231.28    513.91    229.46    511.70  " /></g><g ewd:figtype="annex" ewd:figID="60" ewd:code=" "><path style="stroke-width: 1.42 ;&st7;   " d=" M   229.60,   589.20  C   227.70    591.34    227.64    594.47    229.46    596.69  " /><path style="stroke-width: 1.42 ;&st7;   " d=" M   229.32,   604.17  C   231.22    602.03    231.28    598.90    229.46    596.69  " /></g><g ewd:figtype="annex" ewd:figID="61" ewd:code=" "><path style="stroke-width: 1.42 ;&st7;   " d=" M   229.60,   623.20  C   227.70    625.34    227.64    628.47    229.46    630.68  " /><path style="stroke-width: 1.42 ;&st7;   " d=" M   229.32,   638.16  C   231.22    636.02    231.28    632.89    229.46    630.68  " /></g><g ewd:figtype="annex" ewd:figID="8" ewd:code=" "><path style="stroke-width: 1.42 ;&st7;  " d=" M   424.93,   205.75  L   424.93,   231.25  L   509.91,   231.25  L   509.91,   205.75  L   424.93,   205.75  " /><path style="stroke-width: 1.42 ;&st7;   " d=" M   395.18,   210.00  C   392.84    210.00    390.93    211.90    390.93    214.25  " /><path style="stroke-width: 1.42 ;&st7;   " d=" M   403.68,   214.25  C   403.68    211.90    401.78    210.00    399.43    210.00  " /><path style="stroke-width: 1.42 ;&st7;   " d=" M   399.43,   218.50  C   401.78    218.50    403.68    216.60    403.68    214.25  " /><path style="stroke-width: 0.85 ;&st7;  " d=" M   403.68,   214.25  L   424.93,   214.25  " /><path style="stroke-width: 1.42 ;&st7;  " d=" M   395.18,   210.00  L   399.43,   210.00  " /><path style="stroke-width: 1.42 ;&st7;   " d=" M   390.93,   214.25  C   390.93    216.60    392.84    218.50    395.18    218.50  " /><path style="stroke-width: 0.28 ;&st9;  " d=" M   408.58,   214.25  L   411.41,   211.42  L   407.16,   211.42  L   404.33,   214.25  L   407.16,   217.08  L   411.41,   217.08  L   408.58,   214.25  " /><path style="stroke-width: 1.42 ;&st7;  " d=" M   399.43,   218.50  L   395.18,   218.50  " /><text style="&st18;" transform="matrix(&st16;  451.27  221.88 )" ewd:textID="57">RAD NO.2 <tspan x="0 " dy="6.0">Relay</tspan></text><text style="&st18;" transform="matrix(&st16;  426.66  216.22 )">(-)</text><text style="&st18;" transform="matrix(&st16;  395.51  216.22 )">1</text></g><g ewd:code="7" ewd:figID="67" ewd:comment="" ewd:figtype="comment"><text style="&st18;" transform="matrix(&st16;  73.08  335.2 )">* 7 :G.C.C.</text></g><g ewd:code="8" ewd:figID="68" ewd:comment="" ewd:figtype="comment"><text style="&st18;" transform="matrix(&st16;  73.08  343.7 )" ewd:textID="8">* 8 :Except G.C.C.</text></g><g ewd:code="9" ewd:figID="69" ewd:comment="" ewd:figtype="comment"><text style="&st18;" transform="matrix(&st16;  73.08  352.2 )" ewd:textID="9">* 9 :w/ Front Side Turn Signal Light</text></g><g ewd:code="10" ewd:figID="70" ewd:comment="" ewd:figtype="comment"><text style="&st18;" transform="matrix(&st16;  73.08  360.69 )" ewd:textID="10">*10 :w/ Heater</text></g></svg>