﻿<?xml version="1.0" encoding="UTF-8"?>
<!DOCTYPE svg PUBLIC "-//W3C//DTD SVG 1.0//EN" "http://www.w3.org/TR/2001/REC-SVG-20010904/DTD/svg10.dtd"[
	<!ENTITY ns_flows "http://ns.adobe.com/Flows/1.0/">
	<!ENTITY ns_svg "http://www.w3.org/2000/svg">
	<!ENTITY ns_xlink "http://www.w3.org/1999/xlink">
	<!ENTITY st0 "font-size:7px;font-family:'MS-PGothic';adobe-font-script:japanese;">
	<!ENTITY st1 "font-size:6px;font-family:'ArialMT';">
	<!-- White fill  -->
	<!ENTITY st2 "fill:#FFFFFF;stroke:#000000; stroke-width:1.41;stroke-linecap:round;stroke-linejoin:round;">
	<!-- Yellow fill  -->
	<!ENTITY st3 "fill:#FFFFCC;stroke:#FFFFCC; stroke-width:0.1;stroke-linecap:round;stroke-linejoin:round;">
	<!-- Gray fill  -->
	<!ENTITY st4 "fill:#CCCCCC;stroke:#CCCCCC; stroke-width:0.1;stroke-linecap:round;stroke-linejoin:round;">
	<!-- Light-blue fill -->
	<!ENTITY st5 "fill:#CCECF4;stroke:#000000; stroke-width:1.133;stroke-linecap:round;stroke-linejoin:round;">
	<!ENTITY st6 "fill:none;stroke-linecap:butt; stroke-linejoin:round;">
	<!ENTITY st7 "fill:none;stroke:#000000;stroke-linecap:round;stroke-linejoin:round;">
	<!ENTITY st8 "enable-background:new    ;">
	<!-- Black fill -->
	<!ENTITY st9 "fill:#000000;stroke:#000000; stroke-linecap:round;stroke-linejoin:round;">
	<!-- SRS note   -->
	<!ENTITY st10 "font-size:9px;font-family:'ArialMT';">
	<!ENTITY st11 "font-size:9px;font-family:'Svg Symbol';">
	<!ENTITY st12 "font-size:6px;font-family:'Svg Symbol';">
	<!ENTITY st13 "fill:none;stroke:#ff0000;stroke-linecap:round;stroke-linejoin:round;">
	<!-- Yellow fill  -->
	<!ENTITY st14 "fill:#FFFF00;stroke:#FFFF00; stroke-width:0.1;stroke-linecap:round;stroke-linejoin:round;">
	<!ENTITY st15 "font-size:6px;font-family:'MS-PGothic';adobe-font-script:japanese;">
	<!ENTITY st16 "1.00 0.00 0.00 1.00">
	<!ENTITY st17 "0.00 -1.00 1.00 0.00">
	<!ENTITY st18 "font-size:6px;font-family:'Arial';">
	<!ENTITY st19 "font-size:9px;font-family:'Arial';">
	<!ENTITY st20 "font-size:6px;font-family:'MS-PGothic','MS PGothic';adobe-font-script:japanese;">
	<!ENTITY st21 "font-size:7px;font-family:'MS-PGothic','MS PGothic';adobe-font-script:japanese;">
	<!ATTLIST svg
		xmlns:ewd CDATA #FIXED "http://shcl.co.jp/ewd"
		xmlns:a CDATA #FIXED "http://ns.adobe.com/AdobeSVGViewerExtensions/3.0/"
		ewd:ver CDATA #IMPLIED
	>
	<!ATTLIST a
		ewd:lineID CDATA #IMPLIED
		ewd:groupID CDATA #IMPLIED
		ewd:figtype CDATA #IMPLIED
		ewd:code CDATA #IMPLIED
		ewd:figID CDATA #IMPLIED
		ewd:pinNo CDATA #IMPLIED
		ewd:comment CDATA #IMPLIED >
	<!ATTLIST g
		ewd:lineID CDATA #IMPLIED
		ewd:groupID CDATA #IMPLIED
		ewd:figtype CDATA #IMPLIED
		ewd:code CDATA #IMPLIED
		ewd:figID CDATA #IMPLIED
		ewd:pinNo CDATA #IMPLIED
		ewd:comment CDATA #IMPLIED >
	<!ATTLIST text
		ewd:textID CDATA #IMPLIED >
	<!ATTLIST title
		ewd:textID CDATA #IMPLIED >
]>
<!-- Generator: Shintec Hozumi YS   -->
<svg onload="call_execInitLoadProc_svg('system')" style="overflow:visible;  enable-background:new 0 0 425.454 710.000" viewBox="0 0 425.454 710.000" height="710.000" width="425.454" xml:space="preserve" ewd:ver="2.1.2.9" xmlns="&ns_svg;" xmlns:a="http://ns.adobe.com/AdobeSVGViewerExtensions/3.0/" xmlns:ewd="http://shcl.co.jp/ewd" xmlns:xlink="&ns_xlink;">
	<script type="text/javascript" xlink:href="../../../../../system/js/ewd/fig/svgfig.js"/>
<g id="ewd_top">
	<a ewd:figtype="rb" style="cursor:pointer;" ewd:code="FUSE37" ewd:figID="1">
		<path style="fill:#CCECF4;stroke:#000000; stroke-width:0; stroke-linecap:round;stroke-linejoin:round; " d=" M   276.20,    78.27  L   276.20,    35.78  L   250.71,    35.78  L   250.71,    78.27  L   276.20,    78.27 "/>
	</a>
	<a ewd:figtype="conn" style="cursor:pointer;" ewd:code="E36" ewd:figID="2">
		<path style="fill:#CCECF4;stroke:#000000; stroke-width:1.133; stroke-linecap:round;stroke-linejoin:round; " d=" M    59.49,   146.26  L    59.49,   299.24  L   407.93,   299.24  L   407.93,   146.26  L    59.49,   146.26 "/>
		<title ewd:textID="6">Outer Mirror Switch Assembly</title>
	</a>
	<a ewd:figtype="conn" style="cursor:pointer;" ewd:code="G2" ewd:figID="3">
		<path style="fill:#CCECF4;stroke:#000000; stroke-width:1.133; stroke-linecap:round;stroke-linejoin:round; " d=" M    84.99,   537.20  L   178.47,   537.20  L   178.47,   596.69  L    84.99,   596.69  L    84.99,   537.20 "/>
		<title ewd:textID="7">Outer Rear View Mirror Assembly LH</title>
	</a>
	<a ewd:figtype="conn" style="cursor:pointer;" ewd:code="F2" ewd:figID="4">
		<path style="fill:#CCECF4;stroke:#000000; stroke-width:1.133; stroke-linecap:round;stroke-linejoin:round; " d=" M   263.46,   537.20  L   356.94,   537.20  L   356.94,   596.69  L   263.46,   596.69  L   263.46,   537.20 "/>
		<title ewd:textID="8">Outer Rear View Mirror Assembly RH</title>
	</a>
	<a ewd:figtype="conn" style="cursor:pointer;" ewd:code="E39" ewd:figID="5">
		<path style="fill:#CCECF4;stroke:#000000; stroke-width:1.133; stroke-linecap:round;stroke-linejoin:round; " d=" M   382.44,   656.18  L   382.44,   673.17  L   399.43,   673.17  L   399.43,   656.18  L   382.44,   656.18 "/>
		<title ewd:textID="2">Junction Connector</title>
	</a>
	<a ewd:figtype="fuse" style="cursor:pointer;" ewd:code="FUSE37" ewd:figID="22">
		<path style="&st7; stroke-width:0;" d=" M   276.20,    78.27  L   276.20,    35.78  L   250.71,    35.78  L   250.71,    78.27  L   276.20,    78.27 "/>
	</a>
	<a style="cursor:pointer;" ewd:lineID="1">
		<path style="stroke:#56077D;stroke-width: 5.10 ;&st6;" d=" M   101.98,   469.21  L   101.98,   537.20  "/>
	</a>
	<a style="cursor:pointer;" ewd:lineID="2">
		<path style="stroke:#56077D;stroke-width: 5.10 ;&st6;" d=" M   101.98,   299.24  L   101.98,   445.98  "/>
	</a>
	<a style="cursor:pointer;" ewd:lineID="3">
		<path style="stroke:#008837;stroke-width: 5.10 ;&st6;" d=" M   135.98,   469.21  L   135.98,   537.20  "/>
		<path style="stroke:#FFFFFF;stroke-width: 1.13 ;&st6;" d=" M   135.98,   469.21  L   135.98,   537.20  "/>
	</a>
	<a style="cursor:pointer;" ewd:lineID="4">
		<path style="stroke:#FF0000;stroke-width: 5.10 ;&st6;" d=" M   169.97,   469.21  L   169.97,   537.20  "/>
		<path style="stroke:#FFFFFF;stroke-width: 1.13 ;&st6;" d=" M   169.97,   469.21  L   169.97,   537.20  "/>
	</a>
	<a style="cursor:pointer;" ewd:lineID="5">
		<path style="stroke:#FF0000;stroke-width: 5.10 ;&st6;" d=" M   169.97,   445.98  L   169.97,   358.73  L   339.94,   358.73  "/>
		<path style="stroke:#FFFFFF;stroke-width: 1.13 ;&st6;" d=" M   169.97,   445.98  L   169.97,   358.73  L   339.94,   358.73  "/>
	</a>
	<a style="cursor:pointer;" ewd:lineID="6">
		<path style="stroke:#008837;stroke-width: 5.10 ;&st6;" d=" M   263.46,   299.24  L   263.46,   341.73  L   135.98,   341.73  L   135.98,   445.69  "/>
		<path style="stroke:#FFFFFF;stroke-width: 1.13 ;&st6;" d=" M   263.46,   299.24  L   263.46,   341.73  L   135.98,   341.73  L   135.98,   445.69  "/>
	</a>
	<a style="cursor:pointer;" ewd:lineID="7">
		<path style="stroke:#00A0C6;stroke-width: 5.10 ;&st6;" d=" M   263.46,   146.26  L   263.46,   103.77  "/>
	</a>
	<a style="cursor:pointer;" ewd:lineID="8">
		<path style="stroke:#7FC97F;stroke-width: 5.10 ;&st6;" d=" M   280.45,   537.20  L   280.45,   469.21  "/>
	</a>
	<a style="cursor:pointer;" ewd:lineID="9">
		<path style="stroke:#008837;stroke-width: 5.10 ;&st6;" d=" M   280.45,   469.21  L   280.45,   477.71  L   271.95,   486.20  L   263.46,   486.20  L   263.46,   520.20  L   271.95,   520.20  L   280.45,   528.70  L   280.45,   537.20  "/>
		<path style="stroke:#FFFFFF;stroke-width: 1.13 ;&st6;" d=" M   280.45,   469.21  L   280.45,   477.71  L   271.95,   486.20  L   263.46,   486.20  L   263.46,   520.20  L   271.95,   520.20  L   280.45,   528.70  L   280.45,   537.20  "/>
	</a>
	<a style="cursor:pointer;" ewd:lineID="10">
		<path style="stroke:#7FC97F;stroke-width: 5.10 ;&st6;" d=" M   280.45,   299.24  L   280.45,   445.98  "/>
	</a>
	<a style="cursor:pointer;" ewd:lineID="11">
		<path style="stroke:#000000;stroke-width: 5.10 ;&st6;" d=" M   314.45,   537.20  L   314.45,   469.21  "/>
	</a>
	<a style="cursor:pointer;" ewd:lineID="12">
		<path style="stroke:#56077D;stroke-width: 5.10 ;&st6;" d=" M   314.45,   469.21  L   314.45,   477.71  L   305.95,   486.20  L   297.45,   486.20  L   297.45,   520.20  L   305.95,   520.20  L   314.45,   528.70  L   314.45,   537.20  "/>
	</a>
	<a style="cursor:pointer;" ewd:lineID="13">
		<path style="stroke:#000000;stroke-width: 5.10 ;&st6;" d=" M   314.45,   445.98  L   314.45,   375.72  L   118.98,   375.72  L   118.98,   299.24  "/>
	</a>
	<a style="cursor:pointer;" ewd:lineID="14">
		<path style="stroke:#FF0000;stroke-width: 5.10 ;&st6;" d=" M   348.44,   537.20  L   348.44,   469.21  "/>
		<path style="stroke:#FFFFFF;stroke-width: 1.13 ;&st6;" d=" M   348.44,   537.20  L   348.44,   469.21  "/>
	</a>
	<a style="cursor:pointer;" ewd:lineID="15">
		<path style="stroke:#FF0000;stroke-width: 5.10 ;&st6;" d=" M   348.44,   445.98  L   348.44,   367.22  "/>
		<path style="stroke:#FFFFFF;stroke-width: 1.13 ;&st6;" d=" M   348.44,   445.98  L   348.44,   367.22  "/>
	</a>
	<a style="cursor:pointer;" ewd:lineID="16">
		<path style="stroke:#FF0000;stroke-width: 5.10 ;&st6;" d=" M   348.44,   299.24  L   348.44,   350.23  "/>
		<path style="stroke:#FFFFFF;stroke-width: 1.13 ;&st6;" d=" M   348.44,   299.24  L   348.44,   350.23  "/>
	</a>
	<a style="cursor:pointer;" ewd:lineID="17">
		<path style="stroke:#000000;stroke-width: 5.10 ;&st6;" d=" M   390.93,   656.18  L   390.93,   537.20  "/>
		<path style="stroke:#FFFFFF;stroke-width: 4.53 ;&st6;" d=" M   390.93,   656.18  L   390.93,   537.20  "/>
		<path style="stroke:#000000;stroke-width: 1.13 ;&st6;" d=" M   390.93,   656.18  L   390.93,   537.20  "/>
	</a>
	<a style="cursor:pointer;" ewd:lineID="18">
		<path style="stroke:#000000;stroke-width: 5.10 ;&st6;" d=" M   390.93,   299.24  L   390.93,   520.20  "/>
		<path style="stroke:#FFFFFF;stroke-width: 4.53 ;&st6;" d=" M   390.93,   299.24  L   390.93,   520.20  "/>
		<path style="stroke:#000000;stroke-width: 1.13 ;&st6;" d=" M   390.93,   299.24  L   390.93,   520.20  "/>
	</a>
	<g ewd:figtype="rb" ewd:figID="1" ewd:code="FUSE37">
		<path style="stroke-width: 0.85 ;&st7;  " d=" M   263.46,    69.77  L   263.46,    95.27  "/>
		<path style="stroke-width: 1.42 ;&st7;  " d=" M   265.58,    95.27  L   261.33,    95.27  "/>
		<path style="stroke-width: 1.42 ;&st7;  " d=" M   265.58,   103.77  L   261.33,   103.77  "/>
		<path style="stroke-width: 1.42 ;&st7;   " d=" M   261.33,    95.27  C   258.98     95.27    257.08     97.17    257.08     99.52  "/>
		<path style="stroke-width: 1.42 ;&st7;   " d=" M   257.08,    99.52  C   257.08    101.87    258.98    103.77    261.33    103.77  "/>
		<path style="stroke-width: 1.42 ;&st7;   " d=" M   265.58,   103.77  C   267.93    103.77    269.83    101.87    269.83     99.52  "/>
		<path style="stroke-width: 1.42 ;&st7;   " d=" M   269.83,    99.52  C   269.83     97.17    267.93     95.27    265.58     95.27  "/>
		<path style="stroke-width: 0.28 ;&st9;  " d=" M   263.46,    90.37  L   260.62,    87.54  L   260.62,    91.79  L   263.46,    94.62  L   266.29,    91.79  L   266.29,    87.54  L   263.46,    90.37  "/>
		<text style="&st18;" transform="matrix(&st16;  257.27  86.47 )">2</text>
		<text style="&st18;" transform="matrix(&st16;  254.95  32.08 )">(ACC)</text>
		<text style="&st18;" transform="matrix(&st16;  261.66  101.49 )">2</text>
		<text style="&st18;" transform="matrix(&st16;  279.88  56.17 )">10A <tspan x="0 " dy="6.0">ACC</tspan></text>
		<path style="stroke-width: 1.42 ;&st7;   " d=" M   263.46,    47.11  C   260.72     48.72    259.81     52.25    261.42     54.99  "/>
		<path style="stroke-width: 1.42 ;&st7;   " d=" M   261.42,    54.99  C   261.94     55.87    262.57     56.51    263.46     57.03  "/>
		<path style="stroke-width: 1.42 ;&st7;   " d=" M   263.46,    66.94  C   266.19     65.33    267.11     61.80    265.49     59.06  "/>
		<path style="stroke-width: 1.42 ;&st7;   " d=" M   265.49,    59.06  C   264.97     58.18    264.34     57.55    263.46     57.03  "/>
		<path style="stroke-width: 0.85 ;&st7;   " d=" M   264.87,    45.69  C   264.87     44.91    264.24     44.28    263.46     44.28  "/>
		<path style="stroke-width: 0.85 ;&st7;   " d=" M   263.46,    44.28  C   262.67     44.28    262.04     44.91    262.04     45.69  "/>
		<path style="stroke-width: 0.85 ;&st7;   " d=" M   262.04,    45.69  C   262.04     46.48    262.67     47.11    263.46     47.11  "/>
		<path style="stroke-width: 0.85 ;&st7;   " d=" M   263.46,    47.11  C   264.24     47.11    264.87     46.48    264.87     45.69  "/>
		<path style="stroke-width: 0.85 ;&st7;   " d=" M   264.87,    68.36  C   264.87     67.57    264.24     66.94    263.46     66.94  "/>
		<path style="stroke-width: 0.85 ;&st7;   " d=" M   263.46,    66.94  C   262.67     66.94    262.04     67.57    262.04     68.36  "/>
		<path style="stroke-width: 0.85 ;&st7;   " d=" M   262.04,    68.36  C   262.04     69.14    262.67     69.77    263.46     69.77  "/>
		<path style="stroke-width: 0.85 ;&st7;   " d=" M   263.46,    69.77  C   264.24     69.77    264.87     69.14    264.87     68.36  "/>
		<path style="stroke-width: 1.42 ;&st7;  " d=" M   276.20,    78.27  L   276.20,    35.78  L   250.71,    35.78  L   250.71,    78.27  L   276.20,    78.27  "/>
	</g>
	<g ewd:figtype="conn" ewd:figID="2" ewd:code="E36">
		<path style="stroke-width: 0.85 ;&st7;  " d=" M   263.46,   299.24  L   263.46,   273.74  "/>
		<path style="stroke-width: 1.42 ;&st7;  " d=" M   271.95,   276.57  L   271.95,   259.58  "/>
		<path style="stroke-width: 0.85 ;&st7;  " d=" M   271.95,   239.75  L   271.95,   256.74  "/>
		<path style="stroke-width: 0.85 ;&st7;  " d=" M   280.45,   299.24  L   280.45,   273.74  "/>
		<path style="stroke-width: 0.85 ;&st7;  " d=" M   101.98,   299.24  L   101.98,   273.74  "/>
		<path style="stroke-width: 0.85 ;&st7;  " d=" M   280.45,   197.25  L   280.45,   180.26  "/>
		<path style="stroke-width: 0.85 ;&st7;  " d=" M   110.48,   222.75  L   110.48,   239.75  "/>
		<path style="stroke-width: 1.42 ;&st7;  " d=" M   110.48,   276.57  L   110.48,   259.58  "/>
		<path style="stroke-width: 0.85 ;&st7;  " d=" M   110.48,   239.75  L   110.48,   256.74  "/>
		<path style="stroke-width: 0.85 ;&st7;  " d=" M   118.98,   299.24  L   118.98,   273.74  "/>
		<path style="stroke-width: 1.42 ;&st7;  " d=" M   118.98,   214.25  L   124.65,   197.25  "/>
		<path style="stroke-width: 0.85 ;&st7;  " d=" M   348.44,   239.75  L   348.44,   217.08  "/>
		<path style="stroke-width: 0.85 ;&st7;  " d=" M   263.46,   222.75  L   263.46,   217.08  "/>
		<path style="stroke-width: 0.85 ;&st7;  " d=" M   331.44,   197.25  L   331.44,   180.26  "/>
		<path style="stroke-width: 0.85 ;&st7;  " d=" M   118.98,   222.75  L   118.98,   217.08  "/>
		<path style="stroke-width: 0.85 ;&st7;  " d=" M   101.98,   222.75  L   101.98,   217.08  "/>
		<path style="stroke-width: 1.42 ;&st7;  " d=" M   263.46,   214.25  L   269.12,   197.25  "/>
		<path style="stroke-width: 0.85 ;&st7;  " d=" M   331.44,   239.75  L   331.44,   217.08  "/>
		<path style="stroke-width: 1.42 ;&st7;  " d=" M   331.44,   214.25  L   337.11,   197.25  "/>
		<path style="stroke-width: 0.85 ;&st7;  " d=" M   280.45,   222.75  L   280.45,   217.08  "/>
		<path style="stroke-width: 1.42 ;&st7;  " d=" M   280.45,   214.25  L   286.12,   197.25  "/>
		<path style="stroke-width: 1.42 ;&st7;  " d=" M   348.44,   214.25  L   354.11,   197.25  "/>
		<path style="stroke-width: 0.85 ;&st7;  " d=" M   271.95,   222.75  L   271.95,   239.75  "/>
		<path style="stroke-width: 1.42 ;&st7;  " d=" M   101.98,   214.25  L   107.65,   197.25  "/>
		<path style="stroke-width: 0.85 ;&st7;   " d=" M   349.86,   215.67  C   349.86    214.88    349.22    214.25    348.44    214.25  "/>
		<path style="stroke-width: 0.85 ;&st7;   " d=" M   348.44,   214.25  C   347.66    214.25    347.03    214.88    347.03    215.67  "/>
		<path style="stroke-width: 0.85 ;&st7;   " d=" M   347.03,   215.67  C   347.03    216.45    347.66    217.08    348.44    217.08  "/>
		<path style="stroke-width: 0.85 ;&st7;   " d=" M   348.44,   217.08  C   349.22    217.08    349.86    216.45    349.86    215.67  "/>
		<path style="stroke-width: 0.85 ;&st7;   " d=" M   120.40,   198.67  C   120.40    197.89    119.76    197.25    118.98    197.25  "/>
		<path style="stroke-width: 0.85 ;&st7;   " d=" M   118.98,   197.25  C   118.20    197.25    117.56    197.89    117.56    198.67  "/>
		<path style="stroke-width: 0.85 ;&st7;   " d=" M   117.56,   198.67  C   117.56    199.45    118.20    200.09    118.98    200.09  "/>
		<path style="stroke-width: 0.85 ;&st7;   " d=" M   118.98,   200.09  C   119.76    200.09    120.40    199.45    120.40    198.67  "/>
		<path style="stroke-width: 0.85 ;&st7;   " d=" M   264.87,   198.67  C   264.87    197.89    264.24    197.25    263.46    197.25  "/>
		<path style="stroke-width: 0.85 ;&st7;   " d=" M   263.46,   197.25  C   262.67    197.25    262.04    197.89    262.04    198.67  "/>
		<path style="stroke-width: 0.85 ;&st7;   " d=" M   262.04,   198.67  C   262.04    199.45    262.67    200.09    263.46    200.09  "/>
		<path style="stroke-width: 0.85 ;&st7;   " d=" M   263.46,   200.09  C   264.24    200.09    264.87    199.45    264.87    198.67  "/>
		<path style="stroke-width: 0.85 ;&st7;   " d=" M   281.87,   215.67  C   281.87    214.88    281.24    214.25    280.45    214.25  "/>
		<path style="stroke-width: 0.85 ;&st7;   " d=" M   280.45,   214.25  C   279.67    214.25    279.04    214.88    279.04    215.67  "/>
		<path style="stroke-width: 0.85 ;&st7;   " d=" M   279.04,   215.67  C   279.04    216.45    279.67    217.08    280.45    217.08  "/>
		<path style="stroke-width: 0.85 ;&st7;   " d=" M   280.45,   217.08  C   281.24    217.08    281.87    216.45    281.87    215.67  "/>
		<path style="stroke-width: 0.85 ;&st7;   " d=" M   273.37,   258.16  C   273.37    257.38    272.74    256.74    271.95    256.74  "/>
		<path style="stroke-width: 0.85 ;&st7;   " d=" M   271.95,   256.74  C   271.17    256.74    270.54    257.38    270.54    258.16  "/>
		<path style="stroke-width: 0.85 ;&st7;   " d=" M   270.54,   258.16  C   270.54    258.94    271.17    259.58    271.95    259.58  "/>
		<path style="stroke-width: 0.85 ;&st7;   " d=" M   271.95,   259.58  C   272.74    259.58    273.37    258.94    273.37    258.16  "/>
		<path style="stroke-width: 0.85 ;&st7;   " d=" M   281.87,   272.32  C   281.87    271.54    281.24    270.91    280.45    270.91  "/>
		<path style="stroke-width: 0.85 ;&st7;   " d=" M   280.45,   270.91  C   279.67    270.91    279.04    271.54    279.04    272.32  "/>
		<path style="stroke-width: 0.85 ;&st7;   " d=" M   279.04,   272.32  C   279.04    273.11    279.67    273.74    280.45    273.74  "/>
		<path style="stroke-width: 0.85 ;&st7;   " d=" M   280.45,   273.74  C   281.24    273.74    281.87    273.11    281.87    272.32  "/>
		<path style="stroke-width: 0.85 ;&st7;   " d=" M   281.87,   198.67  C   281.87    197.89    281.24    197.25    280.45    197.25  "/>
		<path style="stroke-width: 0.85 ;&st7;   " d=" M   280.45,   197.25  C   279.67    197.25    279.04    197.89    279.04    198.67  "/>
		<path style="stroke-width: 0.85 ;&st7;   " d=" M   279.04,   198.67  C   279.04    199.45    279.67    200.09    280.45    200.09  "/>
		<path style="stroke-width: 0.85 ;&st7;   " d=" M   280.45,   200.09  C   281.24    200.09    281.87    199.45    281.87    198.67  "/>
		<path style="stroke-width: 0.85 ;&st7;   " d=" M   264.87,   215.67  C   264.87    214.88    264.24    214.25    263.46    214.25  "/>
		<path style="stroke-width: 0.85 ;&st7;   " d=" M   263.46,   214.25  C   262.67    214.25    262.04    214.88    262.04    215.67  "/>
		<path style="stroke-width: 0.85 ;&st7;   " d=" M   262.04,   215.67  C   262.04    216.45    262.67    217.08    263.46    217.08  "/>
		<path style="stroke-width: 0.85 ;&st7;   " d=" M   263.46,   217.08  C   264.24    217.08    264.87    216.45    264.87    215.67  "/>
		<path style="stroke-width: 0.85 ;&st7;   " d=" M   103.40,   272.32  C   103.40    271.54    102.77    270.91    101.98    270.91  "/>
		<path style="stroke-width: 0.85 ;&st7;   " d=" M   101.98,   270.91  C   101.20    270.91    100.57    271.54    100.57    272.32  "/>
		<path style="stroke-width: 0.85 ;&st7;   " d=" M   100.57,   272.32  C   100.57    273.11    101.20    273.74    101.98    273.74  "/>
		<path style="stroke-width: 0.85 ;&st7;   " d=" M   101.98,   273.74  C   102.77    273.74    103.40    273.11    103.40    272.32  "/>
		<path style="stroke-width: 0.85 ;&st7;   " d=" M   111.90,   258.16  C   111.90    257.38    111.26    256.74    110.48    256.74  "/>
		<path style="stroke-width: 0.85 ;&st7;   " d=" M   110.48,   256.74  C   109.70    256.74    109.07    257.38    109.07    258.16  "/>
		<path style="stroke-width: 0.85 ;&st7;   " d=" M   109.07,   258.16  C   109.07    258.94    109.70    259.58    110.48    259.58  "/>
		<path style="stroke-width: 0.85 ;&st7;   " d=" M   110.48,   259.58  C   111.26    259.58    111.90    258.94    111.90    258.16  "/>
		<path style="stroke-width: 0.85 ;&st7;   " d=" M   120.40,   272.32  C   120.40    271.54    119.76    270.91    118.98    270.91  "/>
		<path style="stroke-width: 0.85 ;&st7;   " d=" M   118.98,   270.91  C   118.20    270.91    117.56    271.54    117.56    272.32  "/>
		<path style="stroke-width: 0.85 ;&st7;   " d=" M   117.56,   272.32  C   117.56    273.11    118.20    273.74    118.98    273.74  "/>
		<path style="stroke-width: 0.85 ;&st7;   " d=" M   118.98,   273.74  C   119.76    273.74    120.40    273.11    120.40    272.32  "/>
		<path style="stroke-width: 0.85 ;&st7;   " d=" M   120.40,   198.67  C   120.40    197.89    119.76    197.25    118.98    197.25  "/>
		<path style="stroke-width: 0.85 ;&st7;   " d=" M   118.98,   197.25  C   118.20    197.25    117.56    197.89    117.56    198.67  "/>
		<path style="stroke-width: 0.85 ;&st7;   " d=" M   117.56,   198.67  C   117.56    199.45    118.20    200.09    118.98    200.09  "/>
		<path style="stroke-width: 0.85 ;&st7;   " d=" M   118.98,   200.09  C   119.76    200.09    120.40    199.45    120.40    198.67  "/>
		<path style="stroke-width: 0.85 ;&st7;   " d=" M   281.87,   198.67  C   281.87    197.89    281.24    197.25    280.45    197.25  "/>
		<path style="stroke-width: 0.85 ;&st7;   " d=" M   280.45,   197.25  C   279.67    197.25    279.04    197.89    279.04    198.67  "/>
		<path style="stroke-width: 0.85 ;&st7;   " d=" M   279.04,   198.67  C   279.04    199.45    279.67    200.09    280.45    200.09  "/>
		<path style="stroke-width: 0.85 ;&st7;   " d=" M   280.45,   200.09  C   281.24    200.09    281.87    199.45    281.87    198.67  "/>
		<path style="stroke-width: 0.85 ;&st7;   " d=" M   349.86,   198.67  C   349.86    197.89    349.22    197.25    348.44    197.25  "/>
		<path style="stroke-width: 0.85 ;&st7;   " d=" M   348.44,   197.25  C   347.66    197.25    347.03    197.89    347.03    198.67  "/>
		<path style="stroke-width: 0.85 ;&st7;   " d=" M   347.03,   198.67  C   347.03    199.45    347.66    200.09    348.44    200.09  "/>
		<path style="stroke-width: 0.85 ;&st7;   " d=" M   348.44,   200.09  C   349.22    200.09    349.86    199.45    349.86    198.67  "/>
		<path style="stroke-width: 0.85 ;&st7;   " d=" M   103.40,   215.67  C   103.40    214.88    102.77    214.25    101.98    214.25  "/>
		<path style="stroke-width: 0.85 ;&st7;   " d=" M   101.98,   214.25  C   101.20    214.25    100.57    214.88    100.57    215.67  "/>
		<path style="stroke-width: 0.85 ;&st7;   " d=" M   100.57,   215.67  C   100.57    216.45    101.20    217.08    101.98    217.08  "/>
		<path style="stroke-width: 0.85 ;&st7;   " d=" M   101.98,   217.08  C   102.77    217.08    103.40    216.45    103.40    215.67  "/>
		<path style="stroke-width: 0.85 ;&st7;   " d=" M   103.40,   198.67  C   103.40    197.89    102.77    197.25    101.98    197.25  "/>
		<path style="stroke-width: 0.85 ;&st7;   " d=" M   101.98,   197.25  C   101.20    197.25    100.57    197.89    100.57    198.67  "/>
		<path style="stroke-width: 0.85 ;&st7;   " d=" M   100.57,   198.67  C   100.57    199.45    101.20    200.09    101.98    200.09  "/>
		<path style="stroke-width: 0.85 ;&st7;   " d=" M   101.98,   200.09  C   102.77    200.09    103.40    199.45    103.40    198.67  "/>
		<path style="stroke-width: 0.85 ;&st7;   " d=" M   332.86,   198.67  C   332.86    197.89    332.23    197.25    331.44    197.25  "/>
		<path style="stroke-width: 0.85 ;&st7;   " d=" M   331.44,   197.25  C   330.66    197.25    330.03    197.89    330.03    198.67  "/>
		<path style="stroke-width: 0.85 ;&st7;   " d=" M   330.03,   198.67  C   330.03    199.45    330.66    200.09    331.44    200.09  "/>
		<path style="stroke-width: 0.85 ;&st7;   " d=" M   331.44,   200.09  C   332.23    200.09    332.86    199.45    332.86    198.67  "/>
		<path style="stroke-width: 0.85 ;&st7;   " d=" M   264.87,   272.32  C   264.87    271.54    264.24    270.91    263.46    270.91  "/>
		<path style="stroke-width: 0.85 ;&st7;   " d=" M   263.46,   270.91  C   262.67    270.91    262.04    271.54    262.04    272.32  "/>
		<path style="stroke-width: 0.85 ;&st7;   " d=" M   262.04,   272.32  C   262.04    273.11    262.67    273.74    263.46    273.74  "/>
		<path style="stroke-width: 0.85 ;&st7;   " d=" M   263.46,   273.74  C   264.24    273.74    264.87    273.11    264.87    272.32  "/>
		<path style="stroke-width: 0.85 ;&st7;   " d=" M   120.40,   215.67  C   120.40    214.88    119.76    214.25    118.98    214.25  "/>
		<path style="stroke-width: 0.85 ;&st7;   " d=" M   118.98,   214.25  C   118.20    214.25    117.56    214.88    117.56    215.67  "/>
		<path style="stroke-width: 0.85 ;&st7;   " d=" M   117.56,   215.67  C   117.56    216.45    118.20    217.08    118.98    217.08  "/>
		<path style="stroke-width: 0.85 ;&st7;   " d=" M   118.98,   217.08  C   119.76    217.08    120.40    216.45    120.40    215.67  "/>
		<path style="stroke-width: 0.85 ;&st7;   " d=" M   332.86,   198.67  C   332.86    197.89    332.23    197.25    331.44    197.25  "/>
		<path style="stroke-width: 0.85 ;&st7;   " d=" M   331.44,   197.25  C   330.66    197.25    330.03    197.89    330.03    198.67  "/>
		<path style="stroke-width: 0.85 ;&st7;   " d=" M   330.03,   198.67  C   330.03    199.45    330.66    200.09    331.44    200.09  "/>
		<path style="stroke-width: 0.85 ;&st7;   " d=" M   331.44,   200.09  C   332.23    200.09    332.86    199.45    332.86    198.67  "/>
		<path style="stroke-width: 0.85 ;&st7;   " d=" M   332.86,   215.67  C   332.86    214.88    332.23    214.25    331.44    214.25  "/>
		<path style="stroke-width: 0.85 ;&st7;   " d=" M   331.44,   214.25  C   330.66    214.25    330.03    214.88    330.03    215.67  "/>
		<path style="stroke-width: 0.85 ;&st7;   " d=" M   330.03,   215.67  C   330.03    216.45    330.66    217.08    331.44    217.08  "/>
		<path style="stroke-width: 0.85 ;&st7;   " d=" M   331.44,   217.08  C   332.23    217.08    332.86    216.45    332.86    215.67  "/>
		<path style="stroke-width: 0.85 ;&st7;  " d=" M   263.46,   146.26  L   263.46,   197.25  "/>
		<path style="stroke-width: 0.85 ;&st7;  " d=" M   390.93,   299.24  L   390.93,   180.26  L   118.98,   180.26  L   118.98,   197.25  "/>
		<path style="stroke-width: 0.85 ;&st7;  " d=" M   109.29,   221.75  L   109.02,   222.22  L   108.92,   222.75  L   109.02,   223.28  L   109.29,   223.75  L   109.70,   224.10  L   110.21,   224.28  L   110.75,   224.28  L   111.26,   224.10  L   111.67,   223.75  L   111.95,   223.28  L   112.04,   222.75  L   111.95,   222.22  L   111.67,   221.75  L   111.26,   221.40  L   110.75,   221.21  L   110.21,   221.21  L   109.70,   221.40  L   109.29,   221.75  L   109.68,   222.46  L   109.68,   223.04  L   110.06,   223.48  L   110.63,   223.58  L   111.13,   223.30  L   111.33,   222.75  L   111.13,   222.20  L   110.63,   221.91  L   110.06,   222.01  L   110.48,   222.75  "/>
		<path style="stroke-width: 0.85 ;&st7;  " d=" M   348.44,   239.75  L   348.44,   299.24  "/>
		<path style="stroke-width: 0.85 ;&st7; stroke-dasharray:3, 1.5;" d=" M   110.48,   265.24  L   271.95,   265.24  "/>
		<path style="stroke-width: 1.42 ;&st7;  " d=" M    59.49,   146.26  L    59.49,   299.24  L   407.93,   299.24  L   407.93,   146.26  L    59.49,   146.26  "/>
		<path style="stroke-width: 0.85 ;&st7;  " d=" M   263.46,   171.76  L   101.98,   171.76  L   101.98,   197.25  "/>
		<path style="stroke-width: 0.85 ;&st7;  " d=" M   263.46,   222.75  L   280.45,   222.75  "/>
		<path style="stroke-width: 0.85 ;&st7;  " d=" M   101.98,   222.75  L   118.98,   222.75  "/>
		<path style="stroke-width: 0.85 ;&st7;  " d=" M   270.76,   221.75  L   270.49,   222.22  L   270.40,   222.75  L   270.49,   223.28  L   270.76,   223.75  L   271.18,   224.10  L   271.68,   224.28  L   272.23,   224.28  L   272.73,   224.10  L   273.15,   223.75  L   273.42,   223.28  L   273.51,   222.75  L   273.42,   222.22  L   273.15,   221.75  L   272.73,   221.40  L   272.23,   221.21  L   271.68,   221.21  L   271.18,   221.40  L   270.76,   221.75  L   271.16,   222.46  L   271.16,   223.04  L   271.53,   223.48  L   272.10,   223.58  L   272.61,   223.30  L   272.80,   222.75  L   272.61,   222.20  L   272.10,   221.91  L   271.53,   222.01  L   271.95,   222.75  "/>
		<path style="stroke-width: 0.85 ;&st7;  " d=" M   331.44,   239.75  L   331.44,   265.24  L   348.44,   265.24  "/>
		<path style="stroke-width: 0.85 ;&st7;  " d=" M   263.46,   171.76  L   348.44,   171.76  L   348.44,   197.25  "/>
		<path style="stroke-width: 0.85 ;&st7;  " d=" M   262.26,   170.75  L   261.99,   171.22  L   261.90,   171.76  L   261.99,   172.29  L   262.26,   172.76  L   262.68,   173.11  L   263.18,   173.29  L   263.73,   173.29  L   264.23,   173.11  L   264.65,   172.76  L   264.92,   172.29  L   265.01,   171.76  L   264.92,   171.22  L   264.65,   170.75  L   264.23,   170.41  L   263.73,   170.22  L   263.18,   170.22  L   262.68,   170.41  L   262.26,   170.75  L   262.66,   171.47  L   262.66,   172.05  L   263.03,   172.49  L   263.60,   172.59  L   264.11,   172.30  L   264.31,   171.76  L   264.11,   171.21  L   263.60,   170.92  L   263.03,   171.02  L   263.46,   171.76  "/>
		<path style="stroke-width: 0.85 ;&st7;  " d=" M   279.26,   179.25  L   278.99,   179.72  L   278.89,   180.26  L   278.99,   180.79  L   279.26,   181.26  L   279.67,   181.60  L   280.18,   181.79  L   280.72,   181.79  L   281.23,   181.60  L   281.65,   181.26  L   281.92,   180.79  L   282.01,   180.26  L   281.92,   179.72  L   281.65,   179.25  L   281.23,   178.91  L   280.72,   178.72  L   280.18,   178.72  L   279.67,   178.91  L   279.26,   179.25  L   279.65,   179.96  L   279.65,   180.55  L   280.03,   180.99  L   280.60,   181.09  L   281.10,   180.80  L   281.30,   180.26  L   281.10,   179.71  L   280.60,   179.42  L   280.03,   179.52  L   280.45,   180.26  "/>
		<path style="stroke-width: 0.85 ;&st7;  " d=" M   330.25,   179.25  L   329.98,   179.72  L   329.89,   180.26  L   329.98,   180.79  L   330.25,   181.26  L   330.67,   181.60  L   331.17,   181.79  L   331.72,   181.79  L   332.22,   181.60  L   332.64,   181.26  L   332.91,   180.79  L   333.00,   180.26  L   332.91,   179.72  L   332.64,   179.25  L   332.22,   178.91  L   331.72,   178.72  L   331.17,   178.72  L   330.67,   178.91  L   330.25,   179.25  L   330.65,   179.96  L   330.65,   180.55  L   331.02,   180.99  L   331.59,   181.09  L   332.10,   180.80  L   332.29,   180.26  L   332.10,   179.71  L   331.59,   179.42  L   331.02,   179.52  L   331.44,   180.26  "/>
		<path style="stroke-width: 0.85 ;&st7; stroke-dasharray:3, 1.5;" d=" M    84.99,   163.26  L   373.94,   163.26  L   373.94,   239.75  L    84.99,   239.75  L    84.99,   163.26  "/>
		<path style="stroke-width: 0.85 ;&st7; stroke-dasharray:3, 1.5;" d=" M    76.49,   248.24  L   314.45,   248.24  L   314.45,   282.24  L    76.49,   282.24  L    76.49,   248.24  "/>
		<path style="stroke-width: 0.85 ;&st7;  " d=" M   347.25,   264.24  L   346.98,   264.71  L   346.88,   265.24  L   346.98,   265.77  L   347.25,   266.24  L   347.66,   266.59  L   348.17,   266.78  L   348.71,   266.78  L   349.22,   266.59  L   349.63,   266.24  L   349.91,   265.77  L   350.00,   265.24  L   349.91,   264.71  L   349.63,   264.24  L   349.22,   263.89  L   348.71,   263.71  L   348.17,   263.71  L   347.66,   263.89  L   347.25,   264.24  L   347.64,   264.95  L   347.64,   265.53  L   348.02,   265.98  L   348.59,   266.08  L   349.09,   265.79  L   349.29,   265.24  L   349.09,   264.69  L   348.59,   264.41  L   348.02,   264.50  L   348.44,   265.24  "/>
		<text style="&st18;" transform="matrix(&st16;  384.13  295.55 )">E</text>
		<text style="&st18;" transform="matrix(&st16;  341.02  295.55 )">C</text>
		<text style="&st18;" transform="matrix(&st16;  252.62  295.55 )">VL</text>
		<text style="&st18;" transform="matrix(&st16;  90.76  295.55 )">HL</text>
		<text style="&st18;" transform="matrix(&st16;  121.56  295.55 )">HR</text>
		<text style="&st18;" transform="matrix(&st16;  283.04  295.55 )">VR</text>
		<text style="&st18;" transform="matrix(&st16;  282.71  274.29 )" ewd:textID="9">Right</text>
		<text style="&st18;" transform="matrix(&st16;  241.64  274.29 )" ewd:textID="3">Left</text>
		<text style="&st18;" transform="matrix(&st16;  80.16  274.29 )" ewd:textID="3">Left</text>
		<text style="&st18;" transform="matrix(&st16;  121.24  274.29 )" ewd:textID="9">Right</text>
		<text style="&st18;" transform="matrix(&st16;  266.04  154.45 )">B</text>
		<text style="&st18;" transform="matrix(&st17;  95.45  219.16 )" ewd:textID="3">Left</text>
		<text style="&st18;" transform="matrix(&st17;  129.45  220.71 )" ewd:textID="9">Right</text>
		<text style="&st18;" transform="matrix(&st17;  256.93  217.68 )" ewd:textID="12">Up</text>
		<text style="&st18;" transform="matrix(&st17;  290.92  221.1 )" ewd:textID="1">Down</text>
		<text style="&st18;" transform="matrix(&st17;  318.98  220.71 )" ewd:textID="4">Left/ <tspan x="0 " dy="6.0">Up</tspan></text>
		<text style="&st18;" transform="matrix(&st17;  358.91  222.26 )" ewd:textID="10">Right/ <tspan x="0 " dy="6.0">Down</tspan></text>
		<text style="&st18;" transform="matrix(&st17;  75.63  218.34 )" ewd:textID="5">Operation <tspan x="0 " dy="6.0">Switch</tspan></text>
		<text style="&st18;" transform="matrix(&st17;  66.86  273.21 )" ewd:textID="11">Select <tspan x="0 " dy="6.0">Switch</tspan></text>
		<text style="&st18;" transform="matrix(&st16;  274.27  307.43 )">3</text>
		<text style="&st18;" transform="matrix(&st16;  112.8  307.43 )">2</text>
		<text style="&st18;" transform="matrix(&st16;  342.26  307.43 )">6</text>
		<text style="&st18;" transform="matrix(&st16;  384.75  307.43 )">7</text>
		<text style="&st18;" transform="matrix(&st16;  95.8  307.43 )">5</text>
		<text style="&st18;" transform="matrix(&st16;  257.27  307.43 )">4</text>
		<text style="&st18;" transform="matrix(&st16;  257.27  142.57 )">8</text>
		<g ewd:figtype="title">
			<text style="&st18;" transform="matrix(&st16;  64.58  142.56 )" ewd:textID="6">Outer Mirror Switch Assembly</text>
			<text style="&st18;" transform="matrix(&st16;  64.58  135.46 )">E36</text>
		</g>
	</g>
	<g ewd:figtype="conn" ewd:figID="3" ewd:code="G2">
		<path style="stroke-width: 1.42 ;&st7;  " d=" M   140.23,   551.36  L   140.23,   555.33  "/>
		<path style="stroke-width: 1.42 ;&st7;  " d=" M   131.73,   555.33  L   131.73,   551.36  "/>
		<path style="stroke-width: 1.42 ;&st7;  " d=" M   131.73,   551.36  L   140.23,   551.36  "/>
		<path style="stroke-width: 1.42 ;&st7;  " d=" M   140.23,   574.02  L   140.23,   570.06  "/>
		<path style="stroke-width: 1.42 ;&st7;  " d=" M   131.73,   570.06  L   131.73,   574.02  "/>
		<path style="stroke-width: 1.42 ;&st7;  " d=" M   131.73,   574.02  L   140.23,   574.02  "/>
		<path style="stroke-width: 1.42 ;&st7;  " d=" M    97.73,   574.02  L   106.23,   574.02  "/>
		<path style="stroke-width: 1.42 ;&st7;  " d=" M    97.73,   570.06  L    97.73,   574.02  "/>
		<path style="stroke-width: 1.42 ;&st7;  " d=" M   106.23,   574.02  L   106.23,   570.06  "/>
		<path style="stroke-width: 1.42 ;&st7;  " d=" M    97.73,   551.36  L   106.23,   551.36  "/>
		<path style="stroke-width: 1.42 ;&st7;  " d=" M    97.73,   555.33  L    97.73,   551.36  "/>
		<path style="stroke-width: 1.42 ;&st7;  " d=" M   106.23,   551.36  L   106.23,   555.33  "/>
		<path style="stroke-width: 1.42 ;&st7;   " d=" M   144.48,   562.69  C   144.48    558.00    140.67    554.19    135.98    554.19  "/>
		<path style="stroke-width: 1.42 ;&st7;   " d=" M   135.98,   554.19  C   131.28    554.19    127.48    558.00    127.48    562.69  "/>
		<path style="stroke-width: 1.42 ;&st7;   " d=" M   127.48,   562.69  C   127.48    567.38    131.28    571.19    135.98    571.19  "/>
		<path style="stroke-width: 1.42 ;&st7;   " d=" M   135.98,   571.19  C   140.67    571.19    144.48    567.38    144.48    562.69  "/>
		<path style="stroke-width: 1.42 ;&st7;   " d=" M    93.48,   562.69  C    93.48    567.38     97.29    571.19    101.98    571.19  "/>
		<path style="stroke-width: 1.42 ;&st7;   " d=" M   101.98,   571.19  C   106.68    571.19    110.48    567.38    110.48    562.69  "/>
		<path style="stroke-width: 1.42 ;&st7;   " d=" M   110.48,   562.69  C   110.48    558.00    106.68    554.19    101.98    554.19  "/>
		<path style="stroke-width: 1.42 ;&st7;   " d=" M   101.98,   554.19  C    97.29    554.19     93.48    558.00     93.48    562.69  "/>
		<path style="stroke-width: 0.85 ;&st7;   " d=" M   137.25,   588.19  C   137.25    587.48    136.68    586.91    135.98    586.91  "/>
		<path style="stroke-width: 0.85 ;&st7;   " d=" M   135.98,   586.91  C   135.27    586.91    134.70    587.48    134.70    588.19  "/>
		<path style="stroke-width: 0.85 ;&st7;   " d=" M   134.70,   588.19  C   134.70    588.89    135.27    589.46    135.98    589.46  "/>
		<path style="stroke-width: 0.85 ;&st7;   " d=" M   135.98,   589.46  C   136.68    589.46    137.25    588.89    137.25    588.19  "/>
		<path style="stroke-width: 0.85 ;&st7;   " d=" M   136.93,   588.19  C   136.93    587.66    136.50    587.23    135.98    587.23  "/>
		<path style="stroke-width: 0.85 ;&st7;   " d=" M   135.98,   587.23  C   135.45    587.23    135.02    587.66    135.02    588.19  "/>
		<path style="stroke-width: 0.85 ;&st7;   " d=" M   135.02,   588.19  C   135.02    588.71    135.45    589.14    135.98    589.14  "/>
		<path style="stroke-width: 0.85 ;&st7;   " d=" M   135.98,   589.14  C   136.50    589.14    136.93    588.71    136.93    588.19  "/>
		<path style="stroke-width: 0.85 ;&st7;  " d=" M   135.98,   537.20  L   135.98,   551.36  "/>
		<path style="stroke-width: 0.85 ;&st7;  " d=" M   101.98,   537.20  L   101.98,   551.36  "/>
		<path style="stroke-width: 0.85 ;&st7;  " d=" M   101.98,   574.02  L   101.98,   588.19  L   169.97,   588.19  L   169.97,   537.20  "/>
		<path style="stroke-width: 0.85 ;&st7;  " d=" M   135.98,   588.19  L   135.98,   574.02  "/>
		<path style="stroke-width: 0.85 ;&st7;  " d=" M   135.65,   589.09  L   135.65,   587.29  L   136.30,   587.29  L   136.30,   589.09  "/>
		<path style="stroke-width: 1.42 ;&st7;  " d=" M    84.99,   537.20  L   178.47,   537.20  L   178.47,   596.69  L    84.99,   596.69  L    84.99,   537.20  "/>
		<text style="&st18;" transform="matrix(&st16;  133.25  564.66 )">M</text>
		<text style="&st18;" transform="matrix(&st16;  99.25  564.66 )">M</text>
		<text style="&st18;" transform="matrix(&st16;  94.4  545.39 )">H</text>
		<text style="&st18;" transform="matrix(&st16;  128.78  545.39 )">V</text>
		<text style="&st18;" transform="matrix(&st16;  162.55  545.39 )">C</text>
		<text style="&st18;" transform="matrix(&st16;  95.8  533.51 )">1</text>
		<text style="&st18;" transform="matrix(&st16;  129.79  533.51 )">5</text>
		<text style="&st18;" transform="matrix(&st16;  163.79  533.51 )">3</text>
		<g ewd:figtype="title">
			<text style="&st18;" transform="matrix(&st16;  81.58  611.4 )" ewd:textID="7">Outer Rear View <tspan x="0 " dy="6.0">Mirror Assembly LH</tspan></text>
			<text style="&st18;" transform="matrix(&st16;  81.57  604.3 )">G2</text>
		</g>
	</g>
	<g ewd:figtype="conn" ewd:figID="4" ewd:code="F2">
		<path style="stroke-width: 1.42 ;&st7;  " d=" M   318.70,   551.36  L   318.70,   555.33  "/>
		<path style="stroke-width: 1.42 ;&st7;  " d=" M   310.20,   555.33  L   310.20,   551.36  "/>
		<path style="stroke-width: 1.42 ;&st7;  " d=" M   310.20,   551.36  L   318.70,   551.36  "/>
		<path style="stroke-width: 1.42 ;&st7;  " d=" M   318.70,   574.02  L   318.70,   570.06  "/>
		<path style="stroke-width: 1.42 ;&st7;  " d=" M   310.20,   570.06  L   310.20,   574.02  "/>
		<path style="stroke-width: 1.42 ;&st7;  " d=" M   310.20,   574.02  L   318.70,   574.02  "/>
		<path style="stroke-width: 1.42 ;&st7;  " d=" M   276.20,   574.02  L   284.70,   574.02  "/>
		<path style="stroke-width: 1.42 ;&st7;  " d=" M   276.20,   570.06  L   276.20,   574.02  "/>
		<path style="stroke-width: 1.42 ;&st7;  " d=" M   284.70,   574.02  L   284.70,   570.06  "/>
		<path style="stroke-width: 1.42 ;&st7;  " d=" M   276.20,   551.36  L   284.70,   551.36  "/>
		<path style="stroke-width: 1.42 ;&st7;  " d=" M   276.20,   555.33  L   276.20,   551.36  "/>
		<path style="stroke-width: 1.42 ;&st7;  " d=" M   284.70,   551.36  L   284.70,   555.33  "/>
		<path style="stroke-width: 1.42 ;&st7;   " d=" M   322.95,   562.69  C   322.95    558.00    319.14    554.19    314.45    554.19  "/>
		<path style="stroke-width: 1.42 ;&st7;   " d=" M   314.45,   554.19  C   309.75    554.19    305.95    558.00    305.95    562.69  "/>
		<path style="stroke-width: 1.42 ;&st7;   " d=" M   305.95,   562.69  C   305.95    567.38    309.75    571.19    314.45    571.19  "/>
		<path style="stroke-width: 1.42 ;&st7;   " d=" M   314.45,   571.19  C   319.14    571.19    322.95    567.38    322.95    562.69  "/>
		<path style="stroke-width: 1.42 ;&st7;   " d=" M   271.95,   562.69  C   271.95    567.38    275.76    571.19    280.45    571.19  "/>
		<path style="stroke-width: 1.42 ;&st7;   " d=" M   280.45,   571.19  C   285.15    571.19    288.95    567.38    288.95    562.69  "/>
		<path style="stroke-width: 1.42 ;&st7;   " d=" M   288.95,   562.69  C   288.95    558.00    285.15    554.19    280.45    554.19  "/>
		<path style="stroke-width: 1.42 ;&st7;   " d=" M   280.45,   554.19  C   275.76    554.19    271.95    558.00    271.95    562.69  "/>
		<path style="stroke-width: 0.85 ;&st7;   " d=" M   315.72,   588.19  C   315.72    587.48    315.15    586.91    314.45    586.91  "/>
		<path style="stroke-width: 0.85 ;&st7;   " d=" M   314.45,   586.91  C   313.74    586.91    313.17    587.48    313.17    588.19  "/>
		<path style="stroke-width: 0.85 ;&st7;   " d=" M   313.17,   588.19  C   313.17    588.89    313.74    589.46    314.45    589.46  "/>
		<path style="stroke-width: 0.85 ;&st7;   " d=" M   314.45,   589.46  C   315.15    589.46    315.72    588.89    315.72    588.19  "/>
		<path style="stroke-width: 0.85 ;&st7;   " d=" M   315.40,   588.19  C   315.40    587.66    314.97    587.23    314.45    587.23  "/>
		<path style="stroke-width: 0.85 ;&st7;   " d=" M   314.45,   587.23  C   313.92    587.23    313.49    587.66    313.49    588.19  "/>
		<path style="stroke-width: 0.85 ;&st7;   " d=" M   313.49,   588.19  C   313.49    588.71    313.92    589.14    314.45    589.14  "/>
		<path style="stroke-width: 0.85 ;&st7;   " d=" M   314.45,   589.14  C   314.97    589.14    315.40    588.71    315.40    588.19  "/>
		<path style="stroke-width: 0.85 ;&st7;  " d=" M   314.45,   537.20  L   314.45,   551.36  "/>
		<path style="stroke-width: 0.85 ;&st7;  " d=" M   280.45,   537.20  L   280.45,   551.36  "/>
		<path style="stroke-width: 0.85 ;&st7;  " d=" M   280.45,   574.02  L   280.45,   588.19  L   348.44,   588.19  L   348.44,   537.20  "/>
		<path style="stroke-width: 0.85 ;&st7;  " d=" M   314.45,   588.19  L   314.45,   574.02  "/>
		<path style="stroke-width: 0.85 ;&st7;  " d=" M   314.12,   589.09  L   314.12,   587.29  L   314.77,   587.29  L   314.77,   589.09  "/>
		<path style="stroke-width: 1.42 ;&st7;  " d=" M   263.46,   537.20  L   356.94,   537.20  L   356.94,   596.69  L   263.46,   596.69  L   263.46,   537.20  "/>
		<text style="&st18;" transform="matrix(&st16;  311.72  564.66 )">M</text>
		<text style="&st18;" transform="matrix(&st16;  277.72  564.66 )">M</text>
		<text style="&st18;" transform="matrix(&st16;  273.26  545.39 )">V</text>
		<text style="&st18;" transform="matrix(&st16;  306.87  545.39 )">H</text>
		<text style="&st18;" transform="matrix(&st16;  341.02  545.39 )">C</text>
		<text style="&st18;" transform="matrix(&st16;  308.26  533.51 )">1</text>
		<text style="&st18;" transform="matrix(&st16;  342.26  533.51 )">3</text>
		<text style="&st18;" transform="matrix(&st16;  274.27  533.51 )">5</text>
		<g ewd:figtype="title">
			<text style="&st18;" transform="matrix(&st16;  260.04  604.3 )">F2</text>
			<text style="&st18;" transform="matrix(&st16;  260.05  611.4 )" ewd:textID="8">Outer Rear View <tspan x="0 " dy="6.0">Mirror Assembly RH</tspan></text>
		</g>
	</g>
	<g ewd:figtype="conn" ewd:figID="5" ewd:code="E39">
		<path style="stroke-width: 0.85 ;&st7;  " d=" M   390.93,   656.18  L   390.93,   681.67  "/>
		<path style="stroke-width: 1.42 ;&st7;  " d=" M   382.44,   656.18  L   382.44,   673.17  L   399.43,   673.17  L   399.43,   656.18  L   382.44,   656.18  "/>
		<text style="&st18;" transform="matrix(&st16;  384.75  652.49 )">8</text>
		<g ewd:figtype="title">
			<text style="&st18;" transform="matrix(&st17;  414.15  676.08 )" ewd:textID="2">Junction <tspan x="0 " dy="6.0">Connector</tspan></text>
			<text style="&st18;" transform="matrix(&st17;  407.04  676.07 )">E39</text>
		</g>
	</g>
	<g ewd:figtype="w2w" ewd:figID="7" ewd:code="GE1">
		<text style="&st18;" transform="matrix(&st16;  89.35  466.93 )">2</text>
	</g>
	<g ewd:figtype="w2w" ewd:figID="8" ewd:code="GE2">
		<path style="stroke-width: 1.42 ;&st7;  " d=" M   106.23,   446.54  L   101.98,   450.79  L    97.73,   446.54  "/>
		<path style="stroke-width: 1.42 ;&st7;  " d=" M    97.73,   443.14  L   101.98,   447.39  L   106.23,   443.14  "/>
		<text style="&st18;" transform="matrix(&st16;  89.35  458.43 )">4</text>
	</g>
	<g ewd:figtype="w2w" ewd:figID="9" ewd:code="GE1">
		<text style="&st18;" transform="matrix(&st16;  123.35  466.93 )">3</text>
	</g>
	<g ewd:figtype="w2w" ewd:figID="10" ewd:code="GE2">
		<path style="stroke-width: 1.42 ;&st7;  " d=" M   140.23,   446.54  L   135.98,   450.79  L   131.73,   446.54  "/>
		<path style="stroke-width: 1.42 ;&st7;  " d=" M   131.73,   443.14  L   135.98,   447.39  L   140.23,   443.14  "/>
		<text style="&st18;" transform="matrix(&st16;  123.35  458.43 )">5</text>
	</g>
	<g ewd:figtype="w2w" ewd:figID="11" ewd:code="GE1">
		<text style="&st18;" transform="matrix(&st16;  157.34  466.93 )">7</text>
	</g>
	<g ewd:figtype="w2w" ewd:figID="12" ewd:code="GE2">
		<path style="stroke-width: 1.42 ;&st7;  " d=" M   174.22,   446.54  L   169.97,   450.79  L   165.72,   446.54  "/>
		<path style="stroke-width: 1.42 ;&st7;  " d=" M   165.72,   443.14  L   169.97,   447.39  L   174.22,   443.14  "/>
		<text style="&st18;" transform="matrix(&st16;  157.34  458.43 )">3</text>
	</g>
	<g ewd:figtype="w2w" ewd:figID="13" ewd:code="FE1">
		<text style="&st18;" transform="matrix(&st16;  267.82  466.93 )">5</text>
	</g>
	<g ewd:figtype="w2w" ewd:figID="14" ewd:code="FE2">
		<path style="stroke-width: 1.42 ;&st7;  " d=" M   284.70,   446.54  L   280.45,   450.79  L   276.20,   446.54  "/>
		<path style="stroke-width: 1.42 ;&st7;  " d=" M   276.20,   443.14  L   280.45,   447.39  L   284.70,   443.14  "/>
		<text style="&st18;" transform="matrix(&st16;  267.82  458.43 )">3</text>
	</g>
	<g ewd:figtype="w2w" ewd:figID="15" ewd:code="FE1">
		<text style="&st18;" transform="matrix(&st16;  301.82  466.93 )">4</text>
	</g>
	<g ewd:figtype="w2w" ewd:figID="16" ewd:code="FE2">
		<path style="stroke-width: 1.42 ;&st7;  " d=" M   318.70,   446.54  L   314.45,   450.79  L   310.20,   446.54  "/>
		<path style="stroke-width: 1.42 ;&st7;  " d=" M   310.20,   443.14  L   314.45,   447.39  L   318.70,   443.14  "/>
		<text style="&st18;" transform="matrix(&st16;  301.82  458.43 )">2</text>
	</g>
	<g ewd:figtype="w2w" ewd:figID="17" ewd:code="FE1">
		<text style="&st18;" transform="matrix(&st16;  335.81  466.93 )">3</text>
	</g>
	<g ewd:figtype="w2w" ewd:figID="18" ewd:code="FE2">
		<path style="stroke-width: 1.42 ;&st7;  " d=" M   344.19,   443.14  L   348.44,   447.39  L   352.69,   443.14  "/>
		<path style="stroke-width: 1.42 ;&st7;  " d=" M   352.69,   446.54  L   348.44,   450.79  L   344.19,   446.54  "/>
		<text style="&st18;" transform="matrix(&st16;  335.81  458.43 )">7</text>
	</g>
	<g ewd:figtype="gp" ewd:figID="19" ewd:code="E4">
		<path style="stroke-width: 0.85 ;&st7;  " d=" M   388.10,   707.17  L   393.77,   707.17  "/>
		<path style="stroke-width: 0.85 ;&st7;  " d=" M   389.52,   710.00  L   392.35,   710.00  "/>
		<path style="stroke-width: 0.85 ;&st7;  " d=" M   382.44,   701.50  L   399.43,   701.50  "/>
		<path style="stroke-width: 0.85 ;&st7;  " d=" M   390.93,   697.25  L   390.93,   701.50  "/>
		<path style="stroke-width: 0.85 ;&st7;  " d=" M   386.69,   704.33  L   395.18,   704.33  "/>
	</g>
	<g ewd:code="" ewd:figID="23" ewd:comment="" ewd:figtype="commref">
		<text style="&st18;" transform="matrix(&st16;  357.47  458.43 )">(LHD)</text>
	</g>
	<g ewd:code="" ewd:figID="24" ewd:comment="" ewd:figtype="commref">
		<text style="&st18;" transform="matrix(&st16;  357.47  466.93 )">(RHD)</text>
	</g>
	<g ewd:code="" ewd:figID="25" ewd:comment="" ewd:figtype="commref">
		<text style="&st18;" transform="matrix(&st16;  179.0  466.93 )">(RHD)</text>
	</g>
	<g ewd:code="" ewd:figID="26" ewd:comment="" ewd:figtype="commref">
		<text style="&st18;" transform="matrix(&st16;  179.0  458.43 )">(LHD)</text>
	</g>
	<path style="stroke-width: 1.42 ;&st7;  " d=" M   339.94,   452.21  L   348.44,   452.21  "/>
	<text style="&st18;" transform="matrix(&st16;  299.57  355.03 )">R-W</text>
	<text style="&st18;" transform="matrix(&st17;  98.29  420.02 )">V</text>
	<text style="&st18;" transform="matrix(&st17;  166.28  424.09 )">R-W</text>
	<text style="&st18;" transform="matrix(&st17;  259.76  122.34 )">L</text>
	<text style="&st18;" transform="matrix(&st17;  344.75  513.33 )">R-W</text>
	<text style="&st18;" transform="matrix(&st17;  310.75  512.99 )">B(RHD)</text>
	<text style="&st18;" transform="matrix(&st17;  276.76  515.09 )">LG(RHD)</text>
	<text style="&st18;" transform="matrix(&st17;  344.75  424.09 )">R-W</text>
	<text style="&st18;" transform="matrix(&st17;  310.75  419.9 )">B</text>
	<text style="&st18;" transform="matrix(&st17;  276.76  422.0 )">LG</text>
	<text style="&st18;" transform="matrix(&st17;  166.28  513.33 )">R-W</text>
	<text style="&st18;" transform="matrix(&st17;  132.28  513.68 )">G-W</text>
	<text style="&st18;" transform="matrix(&st17;  98.29  509.26 )">V</text>
	<text style="&st18;" transform="matrix(&st17;  387.24  330.69 )">W-B</text>
	<text style="&st18;" transform="matrix(&st17;  344.75  330.61 )">R-W</text>
	<text style="&st18;" transform="matrix(&st17;  276.76  328.51 )">LG</text>
	<text style="&st18;" transform="matrix(&st17;  259.76  330.96 )">G-W</text>
	<text style="&st18;" transform="matrix(&st17;  115.28  326.42 )">B</text>
	<text style="&st18;" transform="matrix(&st17;  132.28  424.44 )">G-W</text>
	<text style="&st18;" transform="matrix(&st17;  98.29  326.54 )">V</text>
	<path style="stroke-width: 1.42 ;&st7;  " d=" M   305.95,   452.21  L   314.45,   452.21  "/>
	<text style="&st18;" transform="matrix(&st17;  293.76  513.07 )">V(LHD)</text>
	<path style="stroke-width: 1.42 ;&st7;  " d=" M   271.95,   452.21  L   280.45,   452.21  "/>
	<path style="stroke-width: 1.42 ;&st7;  " d=" M   161.47,   452.21  L   169.97,   452.21  "/>
	<path style="stroke-width: 1.42 ;&st7;  " d=" M   127.48,   452.21  L   135.98,   452.21  "/>
	<path style="stroke-width: 1.42 ;&st7;  " d=" M    93.48,   452.21  L   101.98,   452.21  "/>
	<text style="&st18;" transform="matrix(&st17;  259.76  517.49 )">G-W(LHD)</text>
	<path style="stroke-width: 1.42 ;&st7;  " d=" M   356.94,   355.20  L   351.97,   350.23  "/>
	<path style="stroke-width: 1.42 ;&st7;  " d=" M   339.94,   362.26  L   344.91,   367.22  "/>
	<path style="stroke-width: 1.42 ;&st7;  " d=" M   351.97,   367.22  L   356.94,   362.26  "/>
	<path style="stroke-width: 1.42 ;&st7;  " d=" M   344.91,   350.23  L   339.94,   355.20  "/>
	<path style="stroke-width: 1.42 ;&st7;  " d=" M   399.43,   525.17  L   394.46,   520.20  "/>
	<path style="stroke-width: 1.42 ;&st7;  " d=" M   382.44,   532.23  L   387.40,   537.20  "/>
	<path style="stroke-width: 1.42 ;&st7;  " d=" M   394.46,   537.20  L   399.43,   532.23  "/>
	<path style="stroke-width: 1.42 ;&st7;  " d=" M   387.40,   520.20  L   382.44,   525.17  "/>
	<text style="&st18;" transform="matrix(&st17;  387.24  602.64 )">W-B</text>
	<a ewd:figtype="w2w" style="cursor:pointer;" ewd:pinNo="2" ewd:code="GE1" ewd:figID="7">
		<path style="&st2;" d=" M   110.48,   460.71  L    93.48,   460.71  L    93.48,   469.21  L   110.48,   469.21  L   110.48,   460.71 "/>
		<text style="&st8;" transform="matrix(&st16;  96.53  467.08 )"><tspan x="0" style="&st18;" y="0">GE1</tspan></text>
	</a>
	<a ewd:figtype="w2w" style="cursor:pointer;" ewd:pinNo="4" ewd:code="GE2" ewd:figID="8">
		<path style="&st2;" d=" M   110.48,   452.21  L    93.48,   452.21  L    93.48,   460.71  L   110.48,   460.71  L   110.48,   452.21 "/>
		<text style="&st8;" transform="matrix(&st16;  96.53  458.58 )"><tspan x="0" style="&st18;" y="0">GE2</tspan></text>
	</a>
	<a ewd:figtype="w2w" style="cursor:pointer;" ewd:pinNo="3" ewd:code="GE1" ewd:figID="9">
		<path style="&st2;" d=" M   144.48,   460.71  L   127.48,   460.71  L   127.48,   469.21  L   144.48,   469.21  L   144.48,   460.71 "/>
		<text style="&st8;" transform="matrix(&st16;  130.52  467.08 )"><tspan x="0" style="&st18;" y="0">GE1</tspan></text>
	</a>
	<a ewd:figtype="w2w" style="cursor:pointer;" ewd:pinNo="5" ewd:code="GE2" ewd:figID="10">
		<path style="&st2;" d=" M   144.48,   452.21  L   127.48,   452.21  L   127.48,   460.71  L   144.48,   460.71  L   144.48,   452.21 "/>
		<text style="&st8;" transform="matrix(&st16;  130.52  458.58 )"><tspan x="0" style="&st18;" y="0">GE2</tspan></text>
	</a>
	<a ewd:figtype="w2w" style="cursor:pointer;" ewd:pinNo="7" ewd:code="GE1" ewd:figID="11">
		<path style="&st2;" d=" M   178.47,   460.71  L   161.47,   460.71  L   161.47,   469.21  L   178.47,   469.21  L   178.47,   460.71 "/>
		<text style="&st8;" transform="matrix(&st16;  164.52  467.08 )"><tspan x="0" style="&st18;" y="0">GE1</tspan></text>
	</a>
	<a ewd:figtype="w2w" style="cursor:pointer;" ewd:pinNo="3" ewd:code="GE2" ewd:figID="12">
		<path style="&st2;" d=" M   178.47,   452.21  L   161.47,   452.21  L   161.47,   460.71  L   178.47,   460.71  L   178.47,   452.21 "/>
		<text style="&st8;" transform="matrix(&st16;  164.52  458.58 )"><tspan x="0" style="&st18;" y="0">GE2</tspan></text>
	</a>
	<a ewd:figtype="w2w" style="cursor:pointer;" ewd:pinNo="5" ewd:code="FE1" ewd:figID="13">
		<path style="&st2;" d=" M   288.95,   460.71  L   271.95,   460.71  L   271.95,   469.21  L   288.95,   469.21  L   288.95,   460.71 "/>
		<text style="&st8;" transform="matrix(&st16;  275.34  467.08 )"><tspan x="0" style="&st18;" y="0">FE1</tspan></text>
	</a>
	<a ewd:figtype="w2w" style="cursor:pointer;" ewd:pinNo="3" ewd:code="FE2" ewd:figID="14">
		<path style="&st2;" d=" M   288.95,   452.21  L   271.95,   452.21  L   271.95,   460.71  L   288.95,   460.71  L   288.95,   452.21 "/>
		<text style="&st8;" transform="matrix(&st16;  275.34  458.58 )"><tspan x="0" style="&st18;" y="0">FE2</tspan></text>
	</a>
	<a ewd:figtype="w2w" style="cursor:pointer;" ewd:pinNo="4" ewd:code="FE1" ewd:figID="15">
		<path style="&st2;" d=" M   322.95,   460.71  L   305.95,   460.71  L   305.95,   469.21  L   322.95,   469.21  L   322.95,   460.71 "/>
		<text style="&st8;" transform="matrix(&st16;  309.33  467.08 )"><tspan x="0" style="&st18;" y="0">FE1</tspan></text>
	</a>
	<a ewd:figtype="w2w" style="cursor:pointer;" ewd:pinNo="2" ewd:code="FE2" ewd:figID="16">
		<path style="&st2;" d=" M   322.95,   452.21  L   305.95,   452.21  L   305.95,   460.71  L   322.95,   460.71  L   322.95,   452.21 "/>
		<text style="&st8;" transform="matrix(&st16;  309.33  458.58 )"><tspan x="0" style="&st18;" y="0">FE2</tspan></text>
	</a>
	<a ewd:figtype="w2w" style="cursor:pointer;" ewd:pinNo="3" ewd:code="FE1" ewd:figID="17">
		<path style="&st2;" d=" M   356.94,   460.71  L   339.94,   460.71  L   339.94,   469.21  L   356.94,   469.21  L   356.94,   460.71 "/>
		<text style="&st8;" transform="matrix(&st16;  343.32  467.08 )"><tspan x="0" style="&st18;" y="0">FE1</tspan></text>
	</a>
	<a ewd:figtype="w2w" style="cursor:pointer;" ewd:pinNo="7" ewd:code="FE2" ewd:figID="18">
		<path style="&st2;" d=" M   356.94,   452.21  L   339.94,   452.21  L   339.94,   460.71  L   356.94,   460.71  L   356.94,   452.21 "/>
		<text style="&st8;" transform="matrix(&st16;  343.32  458.58 )"><tspan x="0" style="&st18;" y="0">FE2</tspan></text>
	</a>
	<a ewd:figtype="gp" style="cursor:pointer;" ewd:code="E4" ewd:figID="19">
		<path style="&st2;" d=" M   380.31,   681.67  L   401.56,   681.67  L   390.93,   697.25  L   380.31,   681.67 "/>
		<text style="&st8;" transform="matrix(&st16;  387.62  689.46 )"><tspan x="0" style="&st18;" y="0">E4</tspan></text>
	</a>
	<a ewd:figtype="sp" style="cursor:pointer;" ewd:code="SP11" ewd:figID="20">
		<path style="&st2;" d=" M   344.19,   350.23  L   352.69,   350.23  L   356.94,   354.48  L   356.94,   362.97  L   352.69,   367.22  L   344.19,   367.22  L   339.94,   362.97  L   339.94,   354.48  L   344.19,   350.23 "/>
	</a>
	<a ewd:figtype="sp" style="cursor:pointer;" ewd:code="SP13" ewd:figID="21">
		<path style="&st2;" d=" M   386.69,   520.20  L   395.18,   520.20  L   399.43,   524.45  L   399.43,   532.95  L   395.18,   537.20  L   386.69,   537.20  L   382.44,   532.95  L   382.44,   524.45  L   386.69,   520.20 "/>
	</a>
</g>
</svg>