﻿<?xml version="1.0" encoding="utf-8"?>
<!DOCTYPE svg PUBLIC "-//W3C//DTD SVG 1.0//EN" "http://www.w3.org/TR/2001/REC-SVG-20010904/DTD/svg10.dtd"[
	<!ENTITY ns_flows "http://ns.adobe.com/Flows/1.0/">
	<!ENTITY ns_svg "http://www.w3.org/2000/svg">
	<!ENTITY ns_xlink "http://www.w3.org/1999/xlink">
	<!ENTITY st0 "font-size:7px;font-family:'MS-PGothic';adobe-font-script:japanese;">
	<!ENTITY st1 "font-size:6px;font-family:'ArialMT';">
	<!-- White fill  -->
	<!ENTITY st2 "fill:#FFFFFF;stroke:#000000; stroke-width:1.41;stroke-linecap:round;stroke-linejoin:round;">
	<!-- Yellow fill  -->
	<!ENTITY st3 "fill:#FFFFCC;stroke:#FFFFCC; stroke-width:0.1;stroke-linecap:round;stroke-linejoin:round;">
	<!-- Gray fill  -->
	<!ENTITY st4 "fill:#CCCCCC;stroke:#CCCCCC; stroke-width:0.1;stroke-linecap:round;stroke-linejoin:round;">
	<!-- Light-blue fill -->
	<!ENTITY st5 "fill:#CCECF4;stroke:#000000; stroke-width:1.133;stroke-linecap:round;stroke-linejoin:round;">
	<!ENTITY st6 "fill:none;stroke-linecap:butt; stroke-linejoin:round;">
	<!ENTITY st7 "fill:none;stroke:#000000;stroke-linecap:round;stroke-linejoin:round;">
	<!ENTITY st8 "enable-background:new    ;">
	<!-- Black fill -->
	<!ENTITY st9 "fill:#000000;stroke:#000000; stroke-linecap:round;stroke-linejoin:round;">
	<!-- SRS note   -->
	<!ENTITY st10 "font-size:9px;font-family:'ArialMT';">
	<!ENTITY st11 "font-size:9px;font-family:'Svg Symbol';">
	<!ENTITY st12 "font-size:6px;font-family:'Svg Symbol';">
	<!ENTITY st13 "fill:none;stroke:#ff0000;stroke-linecap:round;stroke-linejoin:round;">
	<!-- Yellow fill  -->
	<!ENTITY st14 "fill:#FFFF00;stroke:#FFFF00; stroke-width:0.1;stroke-linecap:round;stroke-linejoin:round;">
	<!ENTITY st15 "font-size:6px;font-family:'MS-PGothic';adobe-font-script:japanese;">
	<!ENTITY st16 "1.00 0.00 0.00 1.00">
	<!ENTITY st17 "0.00 -1.00 1.00 0.00">
	<!ENTITY st18 "font-size:6px;font-family:'Arial';">
	<!ENTITY st19 "font-size:9px;font-family:'Arial';">
	<!ENTITY st20 "font-size:6px;font-family:'MS-PGothic','MS PGothic';adobe-font-script:japanese;">
	<!ENTITY st21 "font-size:7px;font-family:'MS-PGothic','MS PGothic';adobe-font-script:japanese;">
	<!ATTLIST svg
		xmlns:ewd CDATA #FIXED "http://shcl.co.jp/ewd"
		xmlns:a CDATA #FIXED "http://ns.adobe.com/AdobeSVGViewerExtensions/3.0/"
		ewd:ver CDATA #IMPLIED
	>
	<!ATTLIST a
		ewd:lineID CDATA #IMPLIED
		ewd:groupID CDATA #IMPLIED
		ewd:figtype CDATA #IMPLIED
		ewd:code CDATA #IMPLIED
		ewd:figID CDATA #IMPLIED
		ewd:pinNo CDATA #IMPLIED
		ewd:comment CDATA #IMPLIED >
	<!ATTLIST g
		ewd:lineID CDATA #IMPLIED
		ewd:groupID CDATA #IMPLIED
		ewd:figtype CDATA #IMPLIED
		ewd:code CDATA #IMPLIED
		ewd:figID CDATA #IMPLIED
		ewd:pinNo CDATA #IMPLIED
		ewd:comment CDATA #IMPLIED >
	<!ATTLIST text
		ewd:textID CDATA #IMPLIED >
	<!ATTLIST title
		ewd:textID CDATA #IMPLIED >
]>
<!-- Generator: Shintec Hozumi YS   -->
<svg onload="call_execInitLoadProc_svg('system')" style="overflow:visible;  enable-background:new 0 0 918.372 710.000" viewBox="0 0 918.372 710.000" height="710.000" width="918.372" xml:space="preserve" ewd:ver="2.1.2.9" xmlns="&ns_svg;" xmlns:a="http://ns.adobe.com/AdobeSVGViewerExtensions/3.0/" xmlns:ewd="http://shcl.co.jp/ewd" xmlns:xlink="&ns_xlink;"><script type="text/javascript" xlink:href="../../../../../system/js/ewd/fig/svgfig.js" xmlns:xlink="http://www.w3.org/1999/xlink" />
<g id="ewd_top"><a ewd:figtype="rb" style="cursor:pointer;" ewd:code="FUSE35" ewd:figID="1"><path style="fill:#CCECF4;stroke:#000000; stroke-width:0; stroke-linecap:round;stroke-linejoin:round; " d=" M   352.69,   248.24  L   352.69,   290.74  L   378.19,   290.74  L   378.19,   248.24  L   352.69,   248.24 " /></a><a ewd:figtype="rb" style="cursor:pointer;" ewd:code="FUSE22" ewd:figID="2"><path style="fill:#CCECF4;stroke:#000000; stroke-width:0; stroke-linecap:round;stroke-linejoin:round; " d=" M    89.24,   384.22  L    89.24,   426.71  L   114.73,   426.71  L   114.73,   384.22  L    89.24,   384.22 " /></a><a ewd:figtype="conn" style="cursor:pointer;" ewd:code="E28" ewd:figID="3"><path style="fill:#CCECF4;stroke:#000000; stroke-width:1.133; stroke-linecap:round;stroke-linejoin:round; " d=" M   152.97,   180.26  L   212.46,   180.26  L   212.46,   112.27  L   152.97,   112.27  L   152.97,   180.26 " /><title ewd:textID="2">Ignition or Starter Switch Assembly</title></a><a ewd:figtype="conn" style="cursor:pointer;" ewd:code="D1,D3" ewd:figID="4"><path style="fill:#CCECF4;stroke:#000000; stroke-width:1.133; stroke-linecap:round;stroke-linejoin:round; " d=" M   314.45,   562.69  L   229.46,   562.69  L   229.46,   511.70  L   314.45,   511.70  L   314.45,   562.69 " /><title ewd:textID="6">Starter Assembly</title></a><a ewd:figtype="rb" style="cursor:pointer;" ewd:code="2" ewd:figID="5"><path style="fill:#CCECF4;stroke:#000000; stroke-width:0; stroke-linecap:round;stroke-linejoin:round; " d=" M   628.89,   248.24  L   586.40,   248.24  L   586.40,   282.24  L   628.89,   282.24  L   628.89,   248.24 " /></a><a ewd:figtype="conn" style="cursor:pointer;" ewd:code="E23" ewd:figID="6"><path style="fill:#CCECF4;stroke:#000000; stroke-width:1.133; stroke-linecap:round;stroke-linejoin:round; " d=" M   781.87,   129.26  L   900.85,   129.26  L   900.85,   180.26  L   781.87,   180.26  L   781.87,   129.26 " /><title ewd:textID="4">Park/Neutral Position Switch Assembly</title></a><a ewd:figtype="conn" style="cursor:pointer;" ewd:code="E46" ewd:figID="7"><path style="fill:#CCECF4;stroke:#000000; stroke-width:1.133; stroke-linecap:round;stroke-linejoin:round; " d=" M   807.37,   273.74  L   892.35,   273.74  L   892.35,   290.74  L   807.37,   290.74  L   807.37,   273.74 " /><title ewd:textID="3">Junction Connector</title></a><a ewd:figtype="conn" style="cursor:pointer;" ewd:code="E9,E10" ewd:figID="8"><path style="fill:#CCECF4;stroke:#000000; stroke-width:1.133; stroke-linecap:round;stroke-linejoin:round; " d=" M   756.37,   418.22  L   756.37,   452.21  L   866.86,   452.21  L   866.86,   418.22  L   756.37,   418.22 " /><title ewd:textID="7">Transmission Control ECU Assembly</title></a><a ewd:figtype="conn" style="cursor:pointer;" ewd:code="E3" ewd:figID="9"><path style="fill:#CCECF4;stroke:#000000; stroke-width:1.133; stroke-linecap:round;stroke-linejoin:round; " d=" M   390.93,   418.22  L   390.93,   452.21  L   424.93,   452.21  L   424.93,   418.22  L   390.93,   418.22 " /><title>ECM</title></a><a ewd:figtype="conn" style="cursor:pointer;" ewd:code="E39" ewd:figID="10"><path style="fill:#CCECF4;stroke:#000000; stroke-width:1.133; stroke-linecap:round;stroke-linejoin:round; " d=" M   875.35,   656.18  L   875.35,   673.17  L   892.35,   673.17  L   892.35,   656.18  L   875.35,   656.18 " /><title ewd:textID="3">Junction Connector</title></a><a ewd:figtype="jb" style="cursor:pointer;" ewd:code="1" ewd:figID="17"><path style="&st4; " d=" M   263.46,   384.22  L   263.46,   392.72  L   288.95,   392.72  L   288.95,   384.22  L   263.46,   384.22  " /></a><a ewd:figtype="jb" style="cursor:pointer;" ewd:code="1" ewd:figID="18"><path style="&st4; " d=" M    84.99,   452.21  L    84.99,   460.71  L   110.48,   460.71  L   110.48,   452.21  L    84.99,   452.21  " /></a><a ewd:figtype="fuse" style="cursor:pointer;" ewd:code="FUSE22" ewd:figID="23"><path style="&st7; stroke-width:0;" d=" M    89.24,   384.22  L    89.24,   426.71  L   114.73,   426.71  L   114.73,   384.22  L    89.24,   384.22 " /></a><a ewd:figtype="fuse" style="cursor:pointer;" ewd:code="FUSE35" ewd:figID="24"><path style="&st7; stroke-width:0;" d=" M   352.69,   248.24  L   352.69,   290.74  L   378.19,   290.74  L   378.19,   248.24  L   352.69,   248.24 " /></a><a style="cursor:pointer;" ewd:lineID="1"><path style="stroke:#000000;stroke-width: 5.10 ;&st6;" d=" M   101.98,   571.19  L   101.98,   562.69  L   118.98,   545.69  L   220.40,   545.69  " /><path style="stroke:#FFFFFF;stroke-width: 2.27 ;&st6;" d=" M   101.98,   571.19  L   101.98,   562.69  L   118.98,   545.69  L   220.40,   545.69  " /><path style="stroke:#FF0000;stroke-width: 1.13 ;&st6;" d=" M   101.98,   571.19  L   101.98,   562.69  L   118.98,   545.69  L   220.40,   545.69  " /></a><a style="cursor:pointer;" ewd:lineID="2"><path style="stroke:#000000;stroke-width: 5.10 ;&st6;" d=" M   101.98,   460.71  L   101.98,   503.20  " /></a><a style="cursor:pointer;" ewd:lineID="3"><path style="stroke:#000000;stroke-width: 5.10 ;&st6;" d=" M   101.98,   350.23  L   101.98,   290.74  " /></a><a style="cursor:pointer;" ewd:lineID="4"><path style="stroke:#000000;stroke-width: 5.10 ;&st6;" d=" M   101.98,   276.01  L   101.98,   154.76  " /></a><a style="cursor:pointer;" ewd:lineID="5"><path style="stroke:#000000;stroke-width: 5.10 ;&st6;" d=" M   101.98,   137.76  L   101.98,    95.27  L   594.90,    95.27  L   594.90,   222.75  " /></a><a style="cursor:pointer;" ewd:lineID="6"><path style="stroke:#000000;stroke-width: 5.10 ;&st6;" d=" M   152.97,   146.26  L   144.48,   146.26  L   135.98,   154.76  L   135.98,   265.24  L   110.48,   265.24  L   101.98,   273.74  L   101.98,   276.01  " /></a><a style="cursor:pointer;" ewd:lineID="7"><path style="stroke:#000000;stroke-width: 5.10 ;&st6;" d=" M   152.97,   146.26  L   110.48,   146.26  " /></a><a style="cursor:pointer;" ewd:lineID="8"><path style="stroke:#00A0C6;stroke-width: 5.10 ;&st6;" d=" M   212.46,   163.26  L   365.44,   163.26  L   365.44,   214.25  " /><path style="stroke:#FFFFFF;stroke-width: 2.27 ;&st6;" d=" M   212.46,   163.26  L   365.44,   163.26  L   365.44,   214.25  " /><path style="stroke:#000000;stroke-width: 1.13 ;&st6;" d=" M   212.46,   163.26  L   365.44,   163.26  L   365.44,   214.25  " /></a><a style="cursor:pointer;" ewd:lineID="9"><path style="stroke:#00A0C6;stroke-width: 5.10 ;&st6;" d=" M   280.45,   502.63  L   280.45,   392.72  " /><path style="stroke:#FFFFFF;stroke-width: 2.27 ;&st6;" d=" M   280.45,   502.63  L   280.45,   392.72  " /><path style="stroke:#000000;stroke-width: 1.13 ;&st6;" d=" M   280.45,   502.63  L   280.45,   392.72  " /></a><a style="cursor:pointer;" ewd:lineID="10"><path style="stroke:#00A0C6;stroke-width: 5.10 ;&st6;" d=" M   280.45,   290.74  L   280.45,   350.23  " /><path style="stroke:#FFFFFF;stroke-width: 2.27 ;&st6;" d=" M   280.45,   290.74  L   280.45,   350.23  " /><path style="stroke:#000000;stroke-width: 1.13 ;&st6;" d=" M   280.45,   290.74  L   280.45,   350.23  " /></a><a style="cursor:pointer;" ewd:lineID="11"><path style="stroke:#00A0C6;stroke-width: 5.10 ;&st6;" d=" M   280.45,   275.72  L   280.45,   180.26  L   433.43,   180.26  L   433.43,   333.23  L   594.90,   333.23  L   594.90,   307.73  " /><path style="stroke:#FFFFFF;stroke-width: 2.27 ;&st6;" d=" M   280.45,   275.72  L   280.45,   180.26  L   433.43,   180.26  L   433.43,   333.23  L   594.90,   333.23  L   594.90,   307.73  " /><path style="stroke:#000000;stroke-width: 1.13 ;&st6;" d=" M   280.45,   275.72  L   280.45,   180.26  L   433.43,   180.26  L   433.43,   333.23  L   594.90,   333.23  L   594.90,   307.73  " /></a><a style="cursor:pointer;" ewd:lineID="12"><path style="stroke:#00A0C6;stroke-width: 5.10 ;&st6;" d=" M   365.44,   324.73  L   365.44,   333.23  L   373.94,   341.73  L   407.93,   341.73  L   407.93,   409.15  " /><path style="stroke:#FFFFFF;stroke-width: 1.13 ;&st6;" d=" M   365.44,   324.73  L   365.44,   333.23  L   373.94,   341.73  L   407.93,   341.73  L   407.93,   409.15  " /></a><a style="cursor:pointer;" ewd:lineID="13"><path style="stroke:#00A0C6;stroke-width: 5.10 ;&st6;" d=" M   365.44,   214.25  L   365.44,   205.75  L   356.94,   197.25  L   305.95,   197.25  L   305.95,   265.24  L   288.95,   265.24  L   280.45,   273.74  L   280.45,   275.72  " /><path style="stroke:#FFFFFF;stroke-width: 2.27 ;&st6;" d=" M   365.44,   214.25  L   365.44,   205.75  L   356.94,   197.25  L   305.95,   197.25  L   305.95,   265.24  L   288.95,   265.24  L   280.45,   273.74  L   280.45,   275.72  " /><path style="stroke:#000000;stroke-width: 1.13 ;&st6;" d=" M   365.44,   214.25  L   365.44,   205.75  L   356.94,   197.25  L   305.95,   197.25  L   305.95,   265.24  L   288.95,   265.24  L   280.45,   273.74  L   280.45,   275.72  " /></a><a style="cursor:pointer;" ewd:lineID="14"><path style="stroke:#000000;stroke-width: 5.10 ;&st6;" d=" M   620.40,   307.73  L   620.40,   375.72  L   773.37,   375.72  L   773.37,   409.15  " /></a><a style="cursor:pointer;" ewd:lineID="15"><path style="stroke:#00A0C6;stroke-width: 5.10 ;&st6;" d=" M   620.40,   222.75  L   620.40,   137.76  L   705.38,   137.76  L   705.38,   520.20  L   365.44,   520.20  L   365.44,   324.73  " /><path style="stroke:#FFFFFF;stroke-width: 1.13 ;&st6;" d=" M   620.40,   222.75  L   620.40,   137.76  L   705.38,   137.76  L   705.38,   520.20  L   365.44,   520.20  L   365.44,   324.73  " /></a><a style="cursor:pointer;" ewd:lineID="16"><path style="stroke:#7FC97F;stroke-width: 5.10 ;&st6;" d=" M   815.86,   290.74  L   815.86,   409.15  " /></a><a style="cursor:pointer;" ewd:lineID="17"><path style="stroke:#FF0000;stroke-width: 5.10 ;&st6;" d=" M   815.86,   180.26  L   815.86,   273.74  " /></a><a style="cursor:pointer;" ewd:lineID="18"><path style="stroke:#000000;stroke-width: 5.10 ;&st6;" d=" M   849.86,   290.74  L   849.86,   409.15  " /><path style="stroke:#FFFFFF;stroke-width: 2.27 ;&st6;" d=" M   849.86,   290.74  L   849.86,   409.15  " /><path style="stroke:#FFE600;stroke-width: 1.13 ;&st6;" d=" M   849.86,   290.74  L   849.86,   409.15  " /></a><a style="cursor:pointer;" ewd:lineID="19"><path style="stroke:#56077D;stroke-width: 5.10 ;&st6;" d=" M   849.86,   180.26  L   849.86,   273.74  " /></a><a style="cursor:pointer;" ewd:lineID="20"><path style="stroke:#000000;stroke-width: 5.10 ;&st6;" d=" M   883.85,   290.74  L   883.85,   656.18  " /><path style="stroke:#FFFFFF;stroke-width: 4.53 ;&st6;" d=" M   883.85,   290.74  L   883.85,   656.18  " /><path style="stroke:#000000;stroke-width: 1.13 ;&st6;" d=" M   883.85,   290.74  L   883.85,   656.18  " /></a><a style="cursor:pointer;" ewd:lineID="21"><path style="stroke:#992903;stroke-width: 5.10 ;&st6;" d=" M   883.85,   180.26  L   883.85,   273.74  " /></a><a ewd:figtype="w2w" style="cursor:pointer;" ewd:pinNo="6" ewd:code="AE2" ewd:figID="19"><path style="&st2;" d=" M   110.48,   282.24  L    93.48,   282.24  L    93.48,   290.74  L   110.48,   290.74  L   110.48,   282.24 " /><text style="&st8;" transform="matrix(&st16;  96.68  288.61 )"><tspan x="0" style="&st18;" y="0">AE2</tspan></text></a><a ewd:figtype="w2w" style="cursor:pointer;" ewd:pinNo="2" ewd:code="AE2" ewd:figID="20"><path style="&st2;" d=" M   288.95,   282.24  L   271.95,   282.24  L   271.95,   290.74  L   288.95,   290.74  L   288.95,   282.24 " /><text style="&st8;" transform="matrix(&st16;  275.15  288.61 )"><tspan x="0" style="&st18;" y="0">AE2</tspan></text></a><a ewd:figtype="gp" style="cursor:pointer;" ewd:code="E4" ewd:figID="21"><path style="&st2;" d=" M   873.23,   681.67  L   894.48,   681.67  L   883.85,   697.25  L   873.23,   681.67 " /><text style="&st8;" transform="matrix(&st16;  880.54  689.46 )"><tspan x="0" style="&st18;" y="0">E4</tspan></text></a><a ewd:figtype="sp" style="cursor:pointer;" ewd:code="SP12" ewd:figID="22"><path style="&st2;" d=" M    97.73,   137.76  L   106.23,   137.76  L   110.48,   142.01  L   110.48,   150.51  L   106.23,   154.76  L    97.73,   154.76  L    93.48,   150.51  L    93.48,   142.01  L    97.73,   137.76 " /></a></g></svg>