﻿<?xml version="1.0"?>
<!-- Generator: Adobe Illustrator 10.0, SVG Export Plug-In . SVG Version: 3.0.0 Build 77)  -->
<!DOCTYPE svg PUBLIC "-//W3C//DTD SVG 1.0//EN" "http://www.w3.org/TR/2001/REC-SVG-20010904/DTD/svg10.dtd"[
	<!ENTITY ns_flows "http://ns.adobe.com/Flows/1.0/">
	<!ENTITY ns_svg "http://www.w3.org/2000/svg">
	<!ENTITY ns_xlink "http://www.w3.org/1999/xlink">
	<!ENTITY st0 "fill:none;stroke:#000000;stroke-linecap:round;stroke-linejoin:round;">
	<!ENTITY st1 "fill:none;stroke:#000000;stroke-width:0.6;stroke-linecap:round;stroke-linejoin:round;">
	<!ENTITY st2 "font-size:6px;">
	<!ENTITY st3 "font-family:'Arial';">
	<!ATTLIST svg
		ewd:ver CDATA #IMPLIED
		xmlns:ewd CDATA #FIXED "http://shcl.co.jp/ewd"
		xmlns:a CDATA #FIXED "http://ns.adobe.com/AdobeSVGViewerExtensions/3.0/">
	<!ATTLIST g
		ewd:pinNo CDATA #IMPLIED>
]>
<svg width="247.458" height="78.904" viewBox="0 0 247.458 78.904" style="overflow:visible;enable-background:new 0 0 247.458 78.904" xml:space="preserve" onload="call_execInitLoadProc_svg('connector')" ewd:ver="2.1.2.9" xmlns="&ns_svg;" xmlns:ewd="http://shcl.co.jp/ewd" xmlns:a="http://ns.adobe.com/AdobeSVGViewerExtensions/3.0/" xmlns:xlink="&ns_xlink;">
<script type="text/javascript" xlink:href="../../../../../system/js/ewd/fig/svgfig.js"/>
<g id="レイヤー_1">
	<path style="&st0;" d="M30.367,69.319c-0.553-0.553-1.221-0.83-2.003-0.83"/>
	<path style="&st0;" d="M81.701,68.489c-0.782,0-1.45,0.277-2.003,0.83"/>
	<path style="&st0;" d="M8.999,31.662c-1.564,0-2.833,1.269-2.833,2.833"/>
	<path style="&st0;" d="M101.066,68.489c1.564,0,2.833-1.268,2.833-2.833"/>
	<path style="&st0;" d="M103.899,34.495c0-1.564-1.269-2.833-2.833-2.833"/>
	<path style="&st0;" d="M75.106,72.738c0.782,0,1.45-0.277,2.003-0.83"/>
	<path style="&st0;" d="M6.166,65.656c0,1.564,1.269,2.833,2.833,2.833"/>
	<path style="&st0;" d="M32.956,71.908c0.553,0.553,1.221,0.83,2.003,0.83"/>
	<path style="&st1;" d="M142.143,31.662c-1.564,0-2.833,1.269-2.833,2.833"/>
	<path style="&st1;" d="M234.211,68.489c1.564,0,2.832-1.268,2.832-2.833"/>
	<path style="&st1;" d="M237.043,34.495c0-1.564-1.268-2.833-2.832-2.833"/>
	<path style="&st1;" d="M139.31,65.656c0,1.564,1.269,2.833,2.833,2.833"/>
	<path style="&st0;" d="M142.143,27.413c-3.501,0-6.412,2.467-6.986,5.92"/>
	<path style="&st0;" d="M133.905,35.245c0.693-0.451,1.116-1.097,1.25-1.913"/>
	<path style="&st0;" d="M131.973,36.5c-1.661,1.08-2.579,2.77-2.579,4.751"/>
	<path style="&st0;" d="M237.299,72.738c3.129,0,5.665-2.537,5.665-5.666"/>
	<path style="&st0;" d="M129.395,47.852c0,2.532,1.575,4.667,3.995,5.414"/>
	<path style="&st0;" d="M242.964,53.265c2.42-0.747,3.994-2.881,3.994-5.414"/>
	<path style="&st0;" d="M246.958,41.251c0-1.981-0.917-3.671-2.578-4.75"/>
	<path style="&st0;" d="M241.197,33.333c0.135,0.816,0.558,1.463,1.251,1.914"/>
	<path style="&st0;" d="M241.197,33.333c-0.574-3.453-3.485-5.92-6.985-5.92"/>
	<path style="&st0;" d="M133.39,67.072c0,3.129,2.537,5.666,5.666,5.666"/>
	<path style="&st1;" d="M151.208,42.285c0-0.704-0.571-1.275-1.275-1.275"/>
	<path style="&st1;" d="M149.933,41.01c-0.704,0-1.274,0.571-1.274,1.275"/>
	<path style="&st1;" d="M148.659,42.285c0,0.704,0.57,1.274,1.274,1.274"/>
	<path style="&st1;" d="M149.933,43.56c0.704,0,1.275-0.571,1.275-1.274"/>
	<path style="&st1;" d="M150.888,42.285c0-0.527-0.427-0.955-0.955-0.955"/>
	<path style="&st1;" d="M149.933,41.33c-0.527,0-0.955,0.428-0.955,0.955"/>
	<path style="&st1;" d="M148.979,42.285c0,0.527,0.428,0.955,0.955,0.955"/>
	<path style="&st1;" d="M149.933,43.24c0.527,0,0.955-0.428,0.955-0.955"/>
	<path style="&st1;" d="M163.956,42.285c0-0.704-0.571-1.275-1.275-1.275"/>
	<path style="&st1;" d="M162.681,41.01c-0.704,0-1.275,0.571-1.275,1.275"/>
	<path style="&st1;" d="M161.406,42.285c0,0.704,0.571,1.274,1.275,1.274"/>
	<path style="&st1;" d="M162.681,43.56c0.704,0,1.275-0.571,1.275-1.274"/>
	<path style="&st1;" d="M163.636,42.285c0-0.527-0.427-0.955-0.955-0.955"/>
	<path style="&st1;" d="M162.681,41.33c-0.527,0-0.955,0.428-0.955,0.955"/>
	<path style="&st1;" d="M161.727,42.285c0,0.527,0.427,0.955,0.955,0.955"/>
	<path style="&st1;" d="M162.681,43.24c0.527,0,0.955-0.428,0.955-0.955"/>
	<path style="&st1;" d="M176.704,42.285c0-0.704-0.571-1.275-1.274-1.275"/>
	<path style="&st1;" d="M175.429,41.01c-0.704,0-1.275,0.571-1.275,1.275"/>
	<path style="&st1;" d="M174.154,42.285c0,0.704,0.571,1.274,1.275,1.274"/>
	<path style="&st1;" d="M175.429,43.56c0.704,0,1.274-0.571,1.274-1.274"/>
	<path style="&st1;" d="M176.384,42.285c0-0.527-0.428-0.955-0.955-0.955"/>
	<path style="&st1;" d="M175.429,41.33c-0.527,0-0.955,0.428-0.955,0.955"/>
	<path style="&st1;" d="M174.474,42.285c0,0.527,0.428,0.955,0.955,0.955"/>
	<path style="&st1;" d="M175.429,43.24c0.527,0,0.955-0.428,0.955-0.955"/>
	<path style="&st1;" d="M189.452,42.285c0-0.704-0.571-1.275-1.275-1.275"/>
	<path style="&st1;" d="M188.177,41.01c-0.704,0-1.274,0.571-1.274,1.275"/>
	<path style="&st1;" d="M186.902,42.285c0,0.704,0.57,1.274,1.274,1.274"/>
	<path style="&st1;" d="M188.177,43.56c0.704,0,1.275-0.571,1.275-1.274"/>
	<path style="&st1;" d="M189.131,42.285c0-0.527-0.427-0.955-0.955-0.955"/>
	<path style="&st1;" d="M188.177,41.33c-0.527,0-0.955,0.428-0.955,0.955"/>
	<path style="&st1;" d="M187.222,42.285c0,0.527,0.427,0.955,0.955,0.955"/>
	<path style="&st1;" d="M188.177,43.24c0.527,0,0.955-0.428,0.955-0.955"/>
	<path style="&st1;" d="M202.2,42.285c0-0.704-0.571-1.275-1.275-1.275"/>
	<path style="&st1;" d="M200.925,41.01c-0.704,0-1.275,0.571-1.275,1.275"/>
	<path style="&st1;" d="M199.65,42.285c0,0.704,0.571,1.274,1.275,1.274"/>
	<path style="&st1;" d="M200.925,43.56c0.704,0,1.275-0.571,1.275-1.274"/>
	<path style="&st1;" d="M201.879,42.285c0-0.527-0.427-0.955-0.955-0.955"/>
	<path style="&st1;" d="M200.925,41.33c-0.527,0-0.955,0.428-0.955,0.955"/>
	<path style="&st1;" d="M199.97,42.285c0,0.527,0.427,0.955,0.955,0.955"/>
	<path style="&st1;" d="M200.925,43.24c0.527,0,0.955-0.428,0.955-0.955"/>
	<path style="&st1;" d="M214.947,42.285c0-0.704-0.571-1.275-1.275-1.275"/>
	<path style="&st1;" d="M213.672,41.01c-0.704,0-1.274,0.571-1.274,1.275"/>
	<path style="&st1;" d="M212.398,42.285c0,0.704,0.571,1.274,1.274,1.274"/>
	<path style="&st1;" d="M213.672,43.56c0.704,0,1.275-0.571,1.275-1.274"/>
	<path style="&st1;" d="M214.627,42.285c0-0.527-0.428-0.955-0.955-0.955"/>
	<path style="&st1;" d="M213.672,41.33c-0.527,0-0.955,0.428-0.955,0.955"/>
	<path style="&st1;" d="M212.718,42.285c0,0.527,0.428,0.955,0.955,0.955"/>
	<path style="&st1;" d="M213.672,43.24c0.527,0,0.955-0.428,0.955-0.955"/>
	<path style="&st1;" d="M227.695,42.285c0-0.704-0.571-1.275-1.275-1.275"/>
	<path style="&st1;" d="M226.42,41.01c-0.704,0-1.275,0.571-1.275,1.275"/>
	<path style="&st1;" d="M225.146,42.285c0,0.704,0.571,1.274,1.275,1.274"/>
	<path style="&st1;" d="M226.42,43.56c0.704,0,1.275-0.571,1.275-1.274"/>
	<path style="&st1;" d="M227.375,42.285c0-0.527-0.427-0.955-0.955-0.955"/>
	<path style="&st1;" d="M226.42,41.33c-0.527,0-0.955,0.428-0.955,0.955"/>
	<path style="&st1;" d="M225.466,42.285c0,0.527,0.427,0.955,0.955,0.955"/>
	<path style="&st1;" d="M226.42,43.24c0.527,0,0.955-0.428,0.955-0.955"/>
	<path style="&st1;" d="M151.208,57.866c0-0.704-0.571-1.275-1.275-1.275"/>
	<path style="&st1;" d="M149.933,56.591c-0.704,0-1.274,0.571-1.274,1.275"/>
	<path style="&st1;" d="M148.659,57.866c0,0.704,0.57,1.275,1.274,1.275"/>
	<path style="&st1;" d="M149.933,59.141c0.704,0,1.275-0.571,1.275-1.275"/>
	<path style="&st1;" d="M150.888,57.866c0-0.527-0.427-0.955-0.955-0.955"/>
	<path style="&st1;" d="M149.933,56.911c-0.527,0-0.955,0.427-0.955,0.955"/>
	<path style="&st1;" d="M148.979,57.866c0,0.527,0.428,0.955,0.955,0.955"/>
	<path style="&st1;" d="M149.933,58.82c0.527,0,0.955-0.427,0.955-0.955"/>
	<path style="&st1;" d="M163.956,57.866c0-0.704-0.571-1.275-1.275-1.275"/>
	<path style="&st1;" d="M162.681,56.591c-0.704,0-1.275,0.571-1.275,1.275"/>
	<path style="&st1;" d="M161.406,57.866c0,0.704,0.571,1.275,1.275,1.275"/>
	<path style="&st1;" d="M162.681,59.141c0.704,0,1.275-0.571,1.275-1.275"/>
	<path style="&st1;" d="M163.636,57.866c0-0.527-0.427-0.955-0.955-0.955"/>
	<path style="&st1;" d="M162.681,56.911c-0.527,0-0.955,0.427-0.955,0.955"/>
	<path style="&st1;" d="M161.727,57.866c0,0.527,0.427,0.955,0.955,0.955"/>
	<path style="&st1;" d="M162.681,58.82c0.527,0,0.955-0.427,0.955-0.955"/>
	<path style="&st1;" d="M176.704,57.866c0-0.704-0.571-1.275-1.274-1.275"/>
	<path style="&st1;" d="M175.429,56.591c-0.704,0-1.275,0.571-1.275,1.275"/>
	<path style="&st1;" d="M174.154,57.866c0,0.704,0.571,1.275,1.275,1.275"/>
	<path style="&st1;" d="M175.429,59.141c0.704,0,1.274-0.571,1.274-1.275"/>
	<path style="&st1;" d="M176.384,57.866c0-0.527-0.428-0.955-0.955-0.955"/>
	<path style="&st1;" d="M175.429,56.911c-0.527,0-0.955,0.427-0.955,0.955"/>
	<path style="&st1;" d="M174.474,57.866c0,0.527,0.428,0.955,0.955,0.955"/>
	<path style="&st1;" d="M175.429,58.82c0.527,0,0.955-0.427,0.955-0.955"/>
	<path style="&st1;" d="M189.452,57.866c0-0.704-0.571-1.275-1.275-1.275"/>
	<path style="&st1;" d="M188.177,56.591c-0.704,0-1.274,0.571-1.274,1.275"/>
	<path style="&st1;" d="M186.902,57.866c0,0.704,0.57,1.275,1.274,1.275"/>
	<path style="&st1;" d="M188.177,59.141c0.704,0,1.275-0.571,1.275-1.275"/>
	<path style="&st1;" d="M189.131,57.866c0-0.527-0.427-0.955-0.955-0.955"/>
	<path style="&st1;" d="M188.177,56.911c-0.527,0-0.955,0.427-0.955,0.955"/>
	<path style="&st1;" d="M187.222,57.866c0,0.527,0.427,0.955,0.955,0.955"/>
	<path style="&st1;" d="M188.177,58.82c0.527,0,0.955-0.427,0.955-0.955"/>
	<path style="&st1;" d="M202.2,57.866c0-0.704-0.571-1.275-1.275-1.275"/>
	<path style="&st1;" d="M200.925,56.591c-0.704,0-1.275,0.571-1.275,1.275"/>
	<path style="&st1;" d="M199.65,57.866c0,0.704,0.571,1.275,1.275,1.275"/>
	<path style="&st1;" d="M200.925,59.141c0.704,0,1.275-0.571,1.275-1.275"/>
	<path style="&st1;" d="M201.879,57.866c0-0.527-0.427-0.955-0.955-0.955"/>
	<path style="&st1;" d="M200.925,56.911c-0.527,0-0.955,0.427-0.955,0.955"/>
	<path style="&st1;" d="M199.97,57.866c0,0.527,0.427,0.955,0.955,0.955"/>
	<path style="&st1;" d="M200.925,58.82c0.527,0,0.955-0.427,0.955-0.955"/>
	<path style="&st1;" d="M214.947,57.866c0-0.704-0.571-1.275-1.275-1.275"/>
	<path style="&st1;" d="M213.672,56.591c-0.704,0-1.274,0.571-1.274,1.275"/>
	<path style="&st1;" d="M212.398,57.866c0,0.704,0.571,1.275,1.274,1.275"/>
	<path style="&st1;" d="M213.672,59.141c0.704,0,1.275-0.571,1.275-1.275"/>
	<path style="&st1;" d="M214.627,57.866c0-0.527-0.428-0.955-0.955-0.955"/>
	<path style="&st1;" d="M213.672,56.911c-0.527,0-0.955,0.427-0.955,0.955"/>
	<path style="&st1;" d="M212.718,57.866c0,0.527,0.428,0.955,0.955,0.955"/>
	<path style="&st1;" d="M213.672,58.82c0.527,0,0.955-0.427,0.955-0.955"/>
	<path style="&st1;" d="M227.695,57.866c0-0.704-0.571-1.275-1.275-1.275"/>
	<path style="&st1;" d="M226.42,56.591c-0.704,0-1.275,0.571-1.275,1.275"/>
	<path style="&st1;" d="M225.146,57.866c0,0.704,0.571,1.275,1.275,1.275"/>
	<path style="&st1;" d="M226.42,59.141c0.704,0,1.275-0.571,1.275-1.275"/>
	<path style="&st1;" d="M227.375,57.866c0-0.527-0.427-0.955-0.955-0.955"/>
	<path style="&st1;" d="M226.42,56.911c-0.527,0-0.955,0.427-0.955,0.955"/>
	<path style="&st1;" d="M225.466,57.866c0,0.527,0.427,0.955,0.955,0.955"/>
	<path style="&st1;" d="M226.42,58.82c0.527,0,0.955-0.427,0.955-0.955"/>
	<path style="&st1;" d="M10.415,34.495v31.162H99.65V34.495H10.415"/>
	<path style="&st1;" d="M10.415,50.075H99.65"/>
	<path style="&st1;" d="M35.911,65.656V34.495"/>
	<path style="&st1;" d="M48.659,65.656V34.495"/>
	<path style="&st1;" d="M61.406,65.656V34.495"/>
	<path style="&st1;" d="M74.154,65.656V34.495"/>
	<path style="&st1;" d="M86.902,65.656V34.495"/>
	<path style="&st1;" d="M23.163,65.656V34.495"/>
	<path style="&st0;" d="M8.999,31.662h92.068"/>
	<path style="&st1;" d="M28.364,68.489h53.337"/>
	<path style="&st0;" d="M8.999,68.489h19.365"/>
	<path style="&st0;" d="M30.367,69.319l2.589,2.589"/>
	<path style="&st0;" d="M34.959,72.738h40.147"/>
	<path style="&st0;" d="M77.109,71.908l2.589-2.589"/>
	<path style="&st0;" d="M81.701,68.489h19.365"/>
	<path style="&st1;" d="M105.316,48.092v-5.666"/>
	<path style="&st1;" d="M4.749,48.092v-5.666"/>
	<path style="&st0;" d="M6.166,52.058H0.5v5.666h5.666"/>
	<path style="&st0;" d="M103.899,52.058h5.666v5.666h-5.666"/>
	<path style="&st0;" d="M6.166,34.495v7.932H3.333v5.666h2.833v3.966"/>
	<path style="&st1;" d="M6.166,52.058v5.666"/>
	<path style="&st0;" d="M6.166,57.724v7.932"/>
	<path style="&st0;" d="M103.899,34.495v7.932h2.833v5.666h-2.833v3.966"/>
	<path style="&st1;" d="M103.899,52.058v5.666"/>
	<path style="&st0;" d="M103.899,57.724v7.932"/>
	<path style="&st0;" d="M55.033,8.999V0.5h133.144v8.499"/>
	<path style="&st1;" d="M149.933,27.413v4.249"/>
	<path style="&st1;" d="M149.933,72.738h76.487"/>
	<path style="&st0;" d="M149.933,72.738v5.666h76.487v-5.666"/>
	<path style="&st1;" d="M143.559,34.495v31.162h89.235V34.495H143.559"/>
	<path style="&st1;" d="M143.559,50.075h89.235"/>
	<path style="&st1;" d="M169.055,65.656V34.495"/>
	<path style="&st1;" d="M181.803,65.656V34.495"/>
	<path style="&st1;" d="M194.551,65.656V34.495"/>
	<path style="&st1;" d="M207.299,65.656V34.495"/>
	<path style="&st1;" d="M220.046,65.656V34.495"/>
	<path style="&st1;" d="M156.307,65.656V34.495"/>
	<path style="&st1;" d="M142.143,31.662h92.068"/>
	<path style="&st1;" d="M161.508,68.489h53.337"/>
	<path style="&st1;" d="M142.143,68.489h19.365"/>
	<path style="&st0;" d="M133.39,53.265v13.807"/>
	<path style="&st0;" d="M139.055,72.738h10.878"/>
	<path style="&st1;" d="M214.845,68.489h19.366"/>
	<path style="&st1;" d="M238.459,52.058v5.666"/>
	<path style="&st1;" d="M137.894,52.058v5.666"/>
	<path style="&st1;" d="M139.31,48.092h-5.666V41.01h5.666"/>
	<path style="&st1;" d="M237.043,48.092h5.666V41.01h-5.666"/>
	<path style="&st1;" d="M139.31,65.656v-7.932h-2.833v-5.666h2.833v-3.966"/>
	<path style="&st1;" d="M139.31,41.01v-6.516"/>
	<path style="&st1;" d="M237.043,65.656v-7.932h2.833v-5.666h-2.833v-3.966"/>
	<path style="&st1;" d="M226.42,27.413v4.249"/>
	<path style="&st1;" d="M237.043,41.01v-6.516"/>
	<path style="&st0;" d="M246.958,47.852v-6.601"/>
	<path style="&st0;" d="M142.143,27.413h92.068"/>
	<path style="&st0;" d="M129.395,47.852v-6.601"/>
	<path style="&st0;" d="M131.973,36.5l1.932-1.255"/>
	<path style="&st0;" d="M244.38,36.5l-1.932-1.255"/>
	<path style="&st0;" d="M242.964,53.265v13.807"/>
	<path style="&st0;" d="M226.42,72.738h10.879"/>
	<path style="&st1;" d="M149.61,43.183v-1.796h0.646v1.796"/>
	<path style="&st1;" d="M162.358,43.183v-1.796h0.646v1.796"/>
	<path style="&st1;" d="M175.106,43.183v-1.796h0.646v1.796"/>
	<path style="&st1;" d="M187.854,43.183v-1.796h0.646v1.796"/>
	<path style="&st1;" d="M200.602,43.183v-1.796h0.646v1.796"/>
	<path style="&st1;" d="M213.35,43.183v-1.796h0.646v1.796"/>
	<path style="&st1;" d="M226.098,43.183v-1.796h0.646v1.796"/>
	<path style="&st1;" d="M149.61,58.764v-1.796h0.646v1.796"/>
	<path style="&st1;" d="M162.358,58.764v-1.796h0.646v1.796"/>
	<path style="&st1;" d="M175.106,58.764v-1.796h0.646v1.796"/>
	<path style="&st1;" d="M187.854,58.764v-1.796h0.646v1.796"/>
	<path style="&st1;" d="M200.602,58.764v-1.796h0.646v1.796"/>
	<path style="&st1;" d="M213.35,58.764v-1.796h0.646v1.796"/>
	<path style="&st1;" d="M226.098,58.764v-1.796h0.646v1.796"/>
	<path style="&st1;" d="M188.177,42.285v15.581h38.244V42.285H188.177"/>
	<path style="&st1;" d="M149.933,42.285v15.581h25.496V42.285H149.933"/>
	<g ewd:pinNo="13">
		<text transform="matrix(1 0 0 1 77.0469 60.2505)"><tspan x="0" y="0" style="&st3; &st2;">13</tspan></text>
	</g>
	<g ewd:pinNo="14">
		<text transform="matrix(1 0 0 1 89.7949 60.2505)"><tspan x="0" y="0" style="&st3; &st2;">14</tspan></text>
	</g>
	<g ewd:pinNo="12">
		<text transform="matrix(1 0 0 1 64.2988 60.2505)"><tspan x="0" y="0" style="&st3; &st2;">12</tspan></text>
	</g>
	<g ewd:pinNo="11">
		<text transform="matrix(1 0 0 1 51.7739 60.2505)"><tspan x="0" y="0" style="&st3; &st2;">11</tspan></text>
	</g>
	<g ewd:pinNo="10">
		<text transform="matrix(1 0 0 1 38.8032 60.2505)"><tspan x="0" y="0" style="&st3; &st2;">10</tspan></text>
	</g>
	<g ewd:pinNo="9">
		<text transform="matrix(1 0 0 1 28.0762 60.2505)"><tspan x="0" y="0" style="&st3; &st2;">9</tspan></text>
	</g>
	<g ewd:pinNo="8">
		<text transform="matrix(1 0 0 1 15.3281 60.2505)"><tspan x="0" y="0" style="&st3; &st2;">8</tspan></text>
	</g>
	<g ewd:pinNo="7">
		<text transform="matrix(1 0 0 1 91.8154 44.6694)"><tspan x="0" y="0" style="&st3; &st2;">7</tspan></text>
	</g>
	<g ewd:pinNo="6">
		<text transform="matrix(1 0 0 1 79.0674 44.6694)"><tspan x="0" y="0" style="&st3; &st2;">6</tspan></text>
	</g>
	<g ewd:pinNo="5">
		<text transform="matrix(1 0 0 1 66.3198 44.6694)"><tspan x="0" y="0" style="&st3; &st2;">5</tspan></text>
	</g>
	<g ewd:pinNo="4">
		<text transform="matrix(1 0 0 1 53.5718 44.6694)"><tspan x="0" y="0" style="&st3; &st2;">4</tspan></text>
	</g>
	<g ewd:pinNo="3">
		<text transform="matrix(1 0 0 1 40.8242 44.6694)"><tspan x="0" y="0" style="&st3; &st2;">3</tspan></text>
	</g>
	<g ewd:pinNo="2">
		<text transform="matrix(1 0 0 1 28.0762 44.6694)"><tspan x="0" y="0" style="&st3; &st2;">2</tspan></text>
	</g>
	<g ewd:pinNo="1">
		<text transform="matrix(1 0 0 1 15.3281 44.6694)"><tspan x="0" y="0" style="&st3; &st2;">1</tspan></text>
	</g>
</g>
</svg>